FPGA/user/sim/tb_dds.vcd
$date
	Thu May 29 23:39:45 2025
$end
$version
	Icarus Verilog
$end
$timescale
	1ps
$end
$scope module tb_dds $end
$var wire 14 ! wave_out [13:0] $end
$var reg 14 " amp_word [13:0] $end
$var reg 1 # clk $end
$var reg 32 $ pha_word [31:0] $end
$var reg 1 % rstn $end
$var reg 32 & sin_fre_word [31:0] $end
$var reg 32 ' sqr_cmp_word [31:0] $end
$var reg 32 ( sqr_cnt_word [31:0] $end
$scope module u_dds $end
$var wire 14 ) amp_word [13:0] $end
$var wire 1 # clock $end
$var wire 1 * en $end
$var wire 32 + pha_word [31:0] $end
$var wire 1 % rstn $end
$var wire 32 , sin_fre_word [31:0] $end
$var wire 32 - sqr_cmp_word [31:0] $end
$var wire 32 . sqr_cnt_word [31:0] $end
$var wire 32 / tri_decre_word [31:0] $end
$var wire 32 0 tri_incre_word [31:0] $end
$var wire 2 1 wave_type [1:0] $end
$var wire 14 2 triangle_wave [13:0] $end
$var wire 14 3 square_wave [13:0] $end
$var wire 14 4 sine_wave [13:0] $end
$var reg 14 5 wave_out [13:0] $end
$scope module u_sin_dds $end
$var wire 1 # clock $end
$var wire 32 6 fre_word [31:0] $end
$var wire 32 7 pha_word [31:0] $end
$var wire 1 % rstn $end
$var wire 14 8 wave_sin [13:0] $end
$var wire 16 9 douta [15:0] $end
$var wire 32 : Q [31:0] $end
$var parameter 32 ; OUTPUT_WIDTH $end
$var parameter 32 < PHASE_WIDTH $end
$var reg 10 = addr [9:0] $end
$var reg 32 > phase [31:0] $end
$scope module u_accumlator $end
$var wire 32 ? D [31:0] $end
$var wire 32 @ Q [31:0] $end
$var wire 1 A add_sub $end
$var wire 1 # clock $end
$var wire 1 B clr $end
$var wire 1 % rstn $end
$var parameter 32 C DATA_WIDTH $end
$var parameter 32 D WIDTH $end
$var reg 1 E add_sub0 $end
$var reg 1 F add_sub1 $end
$var reg 1 G add_sub2 $end
$var reg 33 H b_tmp0 [32:0] $end
$var reg 33 I b_tmp1 [32:0] $end
$var reg 33 J b_tmp2 [32:0] $end
$var reg 1 K clr0 $end
$var reg 1 L clr1 $end
$var reg 1 M clr2 $end
$var reg 1 N count0 $end
$var reg 1 O count1 $end
$var reg 1 P count2 $end
$var reg 8 Q sum0 [7:0] $end
$var reg 16 R sum1 [15:0] $end
$var reg 24 S sum2 [23:0] $end
$var reg 32 T sum3 [31:0] $end
$upscope $end
$scope module u_sin_rom $end
$var wire 10 U addra [9:0] $end
$var wire 1 # clka $end
$var wire 1 % rstn $end
$var wire 16 V douta [15:0] $end
$var reg 8 W addr [7:0] $end
$var reg 16 X douta_buf [15:0] $end
$var reg 16 Y sin [15:0] $end
$var reg 2 Z state [1:0] $end
$upscope $end
$upscope $end
$scope module u_square_dds $end
$var wire 14 [ amp_word [13:0] $end
$var wire 1 # clk $end
$var wire 32 \ cmp_word [31:0] $end
$var wire 32 ] cnt_word [31:0] $end
$var wire 1 * en $end
$var wire 32 ^ pha_word [31:0] $end
$var wire 1 % rstn $end
$var wire 32 _ cnt_total [31:0] $end
$var reg 32 ` cnt [31:0] $end
$var reg 14 a data [13:0] $end
$upscope $end
$scope module u_triangle_dds $end
$var wire 1 # clk $end
$var wire 32 b decre_word [31:0] $end
$var wire 1 * en $end
$var wire 32 c incre_word [31:0] $end
$var wire 32 d pha_word [31:0] $end
$var wire 1 % rstn $end
$var wire 32 e next_cnt [31:0] $end
$var wire 32 f minus_cnt2 [31:0] $end
$var wire 32 g minus_cnt1 [31:0] $end
$var wire 32 h cnt_total [31:0] $end
$var reg 32 i cnt [31:0] $end
$var reg 14 j data [13:0] $end
$var reg 1 k direction $end
$var reg 1 l sign $end
$upscope $end
$upscope $end
$upscope $end
$enddefinitions $end
$comment Show the parameter values. $end
$dumpall
b100000 D
b1000 C
b100000 <
b1110 ;
$end
#0
$dumpvars
0l
0k
b0 j
b0 i
b0 h
b10000000000000000000000000000000 g
b1 f
b10100011110101110000101001 e
b0 d
b10100011110101110000101001 c
b10100011110101110000101001 b
b0 a
b0 `
b0 _
b0 ^
b1100100 ]
b110010 \
b10000000000000 [
b0 Z
b0 Y
bx X
b0 W
b0 V
b0 U
b0 T
b0 S
b0 R
b0 Q
0P
0O
0N
0M
0L
0K
b0 J
b0 I
b0 H
0G
0F
0E
0B
0A
b0 @
b10100011110101110000101001 ?
b0 >
b0 =
b0 :
b0 9
b0 8
b0 7
b10100011110101110000101001 6
b0 5
b0 4
b0 3
b0 2
b0 1
b10100011110101110000101001 0
b10100011110101110000101001 /
b1100100 .
b110010 -
b10100011110101110000101001 ,
b0 +
1*
b10000000000000 )
b1100100 (
b110010 '
b10100011110101110000101001 &
0%
b0 $
0#
b10000000000000 "
b0 !
$end
#5000
b0 X
1#
#10000
0#
#15000
1#
#20000
0#
1%
#25000
b101000111101011100001010010 e
b1 _
b1 `
b1111101011100001010001111010111 g
b10100011110101110000101010 f
b10100011110101110000101001 h
b10100011110101110000101001 i
b10100011110101110000101001 H
b101001 Q
1#
#30000
0#
#35000
b111101011100001010001111011 e
b1010010 Q
b10100011110101110000101001 I
b101110000101001 R
b10100011 2
b10100011 j
b1111010111000010100011110101110 g
b101000111101011100001010011 f
b101000111101011100001010010 h
b101000111101011100001010010 i
b10 _
b10 `
1#
#40000
0#
#45000
b1010001111010111000010100100 e
b11 _
b11 `
b101000111 2
b101000111 j
b1111000010100011110101110000101 g
b111101011100001010001111100 f
b111101011100001010001111011 h
b111101011100001010001111011 i
b10100011110101110000101001 J
b100011110101110000101001 S
b1011100001010010 R
b1111011 Q
1#
#50000
0#
#55000
b1100110011001100110011001101 e
b10100100 Q
1O
b1010001111011 R
1P
b111101011100001010010 S
b10100011110101110000101001 :
b10100011110101110000101001 @
b10100011110101110000101001 T
b111101011 2
b111101011 j
b1110101110000101000111101011100 g
b1010001111010111000010100101 f
b1010001111010111000010100100 h
b1010001111010111000010100100 i
b100 _
b100 `
1#
#60000
0#
#65000
b1111010111000010100011110110 e
b101 _
b101 `
b1010001111 2
b1010001111 j
b1110011001100110011001100110011 g
b1100110011001100110011001110 f
b1100110011001100110011001101 h
b1100110011001100110011001101 i
b10100011110101110000101001 >
b101000111101011100001010010 :
b101000111101011100001010010 @
b101000111101011100001010010 T
0P
b101011100001010001111011 S
0O
b111000010100100 R
b11001101 Q
1#
#70000
0#
#75000
b10001111010111000010100011111 e
b11110110 Q
b1100110011001101 R
1P
b1111010111000010100100 S
b111101011100001010001111011 :
b111101011100001010001111011 @
b111101011100001010001111011 T
b101000111101011100001010010 >
b1010 =
b1010 U
b1100110011 2
b1100110011 j
b1110000101000111101011100001010 g
b1111010111000010100011110111 f
b1111010111000010100011110110 h
b1111010111000010100011110110 i
b110 _
b110 `
1#
#80000
0#
#85000
b10100011110101110000101001000 e
b111 _
b111 `
b1111010111 2
b1111010111 j
b1101110000101000111101011100001 g
b10001111010111000010100100000 f
b10001111010111000010100011111 h
b10001111010111000010100011111 i
b10100 =
b10100 U
b111101011100001010001111011 >
b1010 W
b1010001111010111000010100100 :
b1010001111010111000010100100 @
b1010001111010111000010100100 T
0P
b110011001100110011001101 S
1O
b10100011110110 R
1N
b11111 Q
1#
#90000
0#
#95000
b10111000010100011110101110001 e
0N
b1001000 Q
0O
b1000010100011111 R
1P
b10111000010100011110110 S
b1100110011001100110011001101 :
b1100110011001100110011001101 @
b1100110011001100110011001101 T
b10100 W
b1010001111010111000010100100 >
b11110 =
b11110 U
b10001111010 2
b10001111010 j
b1101011100001010001111010111000 g
b10100011110101110000101001001 f
b10100011110101110000101001000 h
b10100011110101110000101001000 i
b1000 _
b1000 `
b11111011001 X
1#
#100000
0#
#105000
b111110110 !
b111110110 5
b111110110 4
b111110110 8
b11001100110011001100110011010 e
b1001 _
b1001 `
b10100011110 2
b10100011110 j
b1101000111101011100001010001111 g
b10111000010100011110101110010 f
b10111000010100011110101110001 h
b10111000010100011110101110001 i
b101000 =
b101000 U
b1100110011001100110011001101 >
b11111011001 9
b11111011001 V
b11111011001 Y
b11110 W
b1111010111000010100011110110 :
b1111010111000010100011110110 @
b1111010111000010100011110110 T
0P
b111010111000010100011111 S
b1110000101001000 R
b1110001 Q
b111110101011 X
1#
#110000
0#
#115000
b1111101010 !
b1111101010 5
b1111101010 4
b1111101010 8
b11100001010001111010111000011 e
b10011010 Q
1O
b11110101110001 R
1P
b11110101110000101001000 S
b10001111010111000010100011111 :
b10001111010111000010100011111 @
b10001111010111000010100011111 T
b101000 W
b111110101011 9
b111110101011 V
b111110101011 Y
b1111010111000010100011110110 >
b110011 =
b110011 U
b10111000010 2
b10111000010 j
b1100110011001100110011001100110 g
b11001100110011001100110011011 f
b11001100110011001100110011010 h
b11001100110011001100110011010 i
b1010 _
b1010 `
b1011101101101 X
1#
#120000
0#
#125000
b10111011011 !
b10111011011 5
b10111011011 4
b10111011011 8
b11110101110000101000111101100 e
b1011 _
b1011 `
b11001100110 2
b11001100110 j
b1100011110101110000101000111101 g
b11100001010001111010111000100 f
b11100001010001111010111000011 h
b11100001010001111010111000011 i
b111101 =
b111101 U
b10001111010111000010100011111 >
b1011101101101 9
b1011101101101 V
b1011101101101 Y
b110011 W
b10100011110101110000101001000 :
b10100011110101110000101001000 @
b10100011110101110000101001000 T
b10100011110101110001 S
0O
b1001100110011010 R
b11000011 Q
b1111100011001 X
1#
#130000
0#
#135000
b11111000110 !
b11111000110 5
b11111000110 4
b11111000110 8
b100001010001111010111000010101 e
b11101100 Q
b1111010111000011 R
0P
b100110011001100110011010 S
b10111000010100011110101110001 :
b10111000010100011110101110001 @
b10111000010100011110101110001 T
b111101 W
b1111100011001 9
b1111100011001 V
b1111100011001 Y
b10100011110101110000101001000 >
b1000111 =
b1000111 U
b11100001010 2
b11100001010 j
b1100001010001111010111000010100 g
b11110101110000101000111101101 f
b11110101110000101000111101100 h
b11110101110000101000111101100 i
b1100 _
b1100 `
b10011101100111 X
1#
#140000
0#
#145000
b100111011001 !
b100111011001 5
b100111011001 4
b100111011001 8
b100011110101110000101000111110 e
b1101 _
b1101 `
b11110101110 2
b11110101110 j
b1011110101110000101000111101011 g
b100001010001111010111000010110 f
b100001010001111010111000010101 h
b100001010001111010111000010101 i
b1010001 =
b1010001 U
b10111000010100011110101110001 >
b10011101100111 9
b10011101100111 V
b10011101100111 Y
b1000111 W
b11001100110011001100110011010 :
b11001100110011001100110011010 @
b11001100110011001100110011010 T
1P
b1010001111010111000011 S
1O
b101000111101100 R
1N
b10101 Q
b10111011001100 X
1#
#150000
0#
#155000
b101110110011 !
b101110110011 5
b101110110011 4
b101110110011 8
b100110011001100110011001100111 e
0N
b111110 Q
0O
b1010111000010101 R
0P
b101110000101000111101100 S
b11100001010001111010111000011 :
b11100001010001111010111000011 @
b11100001010001111010111000011 T
b1010001 W
b10111011001100 9
b10111011001100 V
b10111011001100 Y
b11001100110011001100110011010 >
b1011100 =
b1011100 U
b100001010001 2
b100001010001 j
b1011100001010001111010111000010 g
b100011110101110000101000111111 f
b100011110101110000101000111110 h
b100011110101110000101000111110 i
b1110 _
b1110 `
b11011000000100 X
1#
#160000
0#
#165000
b110110000001 !
b110110000001 5
b110110000001 4
b110110000001 8
b101000111101011100001010010000 e
b1111 _
b1111 `
b100011110101 2
b100011110101 j
b1011001100110011001100110011001 g
b100110011001100110011001101000 f
b100110011001100110011001100111 h
b100110011001100110011001100111 i
b1100110 =
b1100110 U
b11100001010001111010111000011 >
b11011000000100 9
b11011000000100 V
b11011000000100 Y
b1011100 W
b11110101110000101000111101100 :
b11110101110000101000111101100 @
b11110101110000101000111101100 T
1P
b10001111010111000010101 S
1O
b101000111110 R
b1100111 Q
b11110100000111 X
1#
#170000
0#
#175000
b111101000001 !
b111101000001 5
b111101000001 4
b111101000001 8
b101011100001010001111010111001 e
b10010000 Q
0O
b110011001100111 R
0P
b110101110000101000111110 S
b100001010001111010111000010101 :
b100001010001111010111000010101 @
b100001010001111010111000010101 T
b1100110 W
b11110100000111 9
b11110100000111 V
b11110100000111 Y
b11110101110000101000111101100 >
b1110000 =
b1110000 U
b100110011001 2
b100110011001 j
b1010111000010100011110101110000 g
b101000111101011100001010010001 f
b101000111101011100001010010000 h
b101000111101011100001010010000 i
b10000 _
b10000 `
b100010001111010 X
1#
#180000
0#
#185000
b1000100011110 !
b1000100011110 5
b1000100011110 4
b1000100011110 8
b101110000101000111101011100010 e
b10001 _
b10001 `
b101000111101 2
b101000111101 j
b1010100011110101110000101000111 g
b101011100001010001111010111010 f
b101011100001010001111010111001 h
b101011100001010001111010111001 i
b1111010 =
b1111010 U
b100001010001111010111000010101 >
b100010001111010 9
b100010001111010 V
b100010001111010 Y
b1110000 W
b100011110101110000101000111110 :
b100011110101110000101000111110 @
b100011110101110000101000111110 T
1P
b11001100110011001100111 S
b1100001010010000 R
b10111001 Q
b100101011111011 X
1#
#190000
0#
#195000
b1001010111110 !
b1001010111110 5
b1001010111110 4
b1001010111110 8
b110000101000111101011100001011 e
b11100010 Q
1O
b1111010111001 R
0P
b111101011100001010010000 S
b100110011001100110011001100111 :
b100110011001100110011001100111 @
b100110011001100110011001100111 T
b1111010 W
b100101011111011 9
b100101011111011 V
b100101011111011 Y
b100011110101110000101000111110 >
b10000101 =
b10000101 U
b101011100001 2
b101011100001 j
b1010001111010111000010100011110 g
b101110000101000111101011100011 f
b101110000101000111101011100010 h
b101110000101000111101011100010 i
b10010 _
b10010 `
b101000100110011 X
1#
#200000
0#
#205000
b1010001001100 !
b1010001001100 5
b1010001001100 4
b1010001001100 8
b110011001100110011001100110100 e
b10011 _
b10011 `
b101110000101 2
b101110000101 j
b1001111010111000010100011110101 g
b110000101000111101011100001100 f
b110000101000111101011100001011 h
b110000101000111101011100001011 i
b10001111 =
b10001111 U
b100110011001100110011001100111 >
b101000100110011 9
b101000100110011 V
b101000100110011 Y
b10000101 W
b101000111101011100001010010000 :
b101000111101011100001010010000 @
b101000111101011100001010010000 T
1P
b100001010001111010111001 S
0O
b111101011100010 R
1N
b1011 Q
b101011100011101 X
1#
#210000
0#
#215000
b1010111000111 !
b1010111000111 5
b1010111000111 4
b1010111000111 8
b110101110000101000111101011101 e
0N
b110100 Q
b1101011100001011 R
b101000111101011100010 S
b101011100001010001111010111001 :
b101011100001010001111010111001 @
b101011100001010001111010111001 T
b10001111 W
b101011100011101 9
b101011100011101 V
b101011100011101 Y
b101000111101011100001010010000 >
b10011001 =
b10011001 U
b110000101000 2
b110000101000 j
b1001100110011001100110011001100 g
b110011001100110011001100110101 f
b110011001100110011001100110100 h
b110011001100110011001100110100 i
b10100 _
b10100 `
b101110100111110 X
1#
#220000
0#
#225000
b1011101001111 !
b1011101001111 5
b1011101001111 4
b1011101001111 8
b111000010100011110101110000110 e
b10101 _
b10101 `
b110011001100 2
b110011001100 j
b1001010001111010111000010100011 g
b110101110000101000111101011110 f
b110101110000101000111101011101 h
b110101110000101000111101011101 i
b10100011 =
b10100011 U
b101011100001010001111010111001 >
b101110100111110 9
b101110100111110 V
b101110100111110 Y
b10011001 W
b101110000101000111101011100010 :
b101110000101000111101011100010 @
b101110000101000111101011100010 T
0P
b101000111101011100001011 S
1O
b11001100110100 R
b1011101 Q
b110001001110001 X
1#
#230000
0#
#235000
b1100010011100 !
b1100010011100 5
b1100010011100 4
b1100010011100 8
b111010111000010100011110101111 e
b10000110 Q
0O
b1000111101011101 R
1P
b1100110011001100110100 S
b110000101000111101011100001011 :
b110000101000111101011100001011 @
b110000101000111101011100001011 T
b10100011 W
b110001001110001 9
b110001001110001 V
b110001001110001 Y
b101110000101000111101011100010 >
b10101110 =
b10101110 U
b110101110000 2
b110101110000 j
b1000111101011100001010001111010 g
b111000010100011110101110000111 f
b111000010100011110101110000110 h
b111000010100011110101110000110 i
b10110 _
b10110 `
b110011101000110 X
1#
#240000
0#
#245000
b1100111010001 !
b1100111010001 5
b1100111010001 4
b1100111010001 8
b111101011100001010001111011000 e
b10111 _
b10111 `
b111000010100 2
b111000010100 j
b1000101000111101011100001010001 g
b111010111000010100011110110000 f
b111010111000010100011110101111 h
b111010111000010100011110101111 i
b10111000 =
b10111000 U
b110000101000111101011100001011 >
b110011101000110 9
b110011101000110 V
b110011101000110 Y
b10101110 W
b110011001100110011001100110100 :
b110011001100110011001100110100 @
b110011001100110011001100110100 T
0P
b110000101000111101011101 S
b1110101110000110 R
b10101111 Q
b110101110111000 X
1#
#250000
0#
#255000
b1101011101110 !
b1101011101110 5
b1101011101110 4
b1101011101110 8
b1000000000000000000000000000001 e
b11011000 Q
1O
b100011110101111 R
1P
b10100011110101110000110 S
b110101110000101000111101011101 :
b110101110000101000111101011101 @
b110101110000101000111101011101 T
b10111000 W
b110101110111000 9
b110101110111000 V
b110101110111000 Y
b110011001100110011001100110100 >
b11000010 =
b11000010 U
b111010111000 2
b111010111000 j
b1000010100011110101110000101000 g
b111101011100001010001111011001 f
b111101011100001010001111011000 h
b111101011100001010001111011000 i
b11000 _
b11000 `
b111000000100011 X
1#
#260000
0#
#265000
b1110000001000 !
b1110000001000 5
b1110000001000 4
b1110000001000 8
b1000010100011110101110000101010 e
b11001 _
b11001 `
1k
b111101011100 2
b111101011100 j
b111111111111111111111111111111 g
b1000000000000000000000000000010 f
b1000000000000000000000000000001 h
b1000000000000000000000000000001 i
b11001100 =
b11001100 U
b110101110000101000111101011101 >
b111000000100011 9
b111000000100011 V
b111000000100011 Y
b11000010 W
b111000010100011110101110000110 :
b111000010100011110101110000110 @
b111000010100011110101110000110 T
0P
b111000010100011110101111 S
0O
b1010001111011000 R
1N
b1 Q
b111001110110101 X
1#
#270000
0#
#275000
b1110011101101 !
b1110011101101 5
b1110011101101 4
b1110011101101 8
b1000101000111101011100001010011 e
0N
b101010 Q
1O
b1 R
1P
b11100001010001111011000 S
b111010111000010100011110101111 :
b111010111000010100011110101111 @
b111010111000010100011110101111 T
b11001100 W
b111001110110101 9
b111001110110101 V
b111001110110101 Y
b111000010100011110101110000110 >
b11010111 =
b11010111 U
b111111111111 2
b111111111111 j
b111101011100001010001111010110 g
b1000010100011110101110000101011 f
b1000010100011110101110000101010 h
b1000010100011110101110000101010 i
b11010 _
b11010 `
b111011011011001 X
1#
#280000
0#
#285000
b1110110110110 !
b1110110110110 5
b1110110110110 4
b1110110110110 8
b1000111101011100001010001111100 e
b11011 _
b11011 `
b111101011100 2
b111101011100 j
b111010111000010100011110101101 g
b1000101000111101011100001010100 f
b1000101000111101011100001010011 h
b1000101000111101011100001010011 i
b11100001 =
b11100001 U
b111010111000010100011110101111 >
b111011011011001 9
b111011011011001 V
b111011011011001 Y
b11010111 W
b111101011100001010001111011000 :
b111101011100001010001111011000 @
b111101011100001010001111011000 T
b1 S
0O
b101110000101010 R
b1010011 Q
b111100110001010 X
1#
#290000
0#
#295000
b1111001100010 !
b1111001100010 5
b1111001100010 4
b1111001100010 8
b1001010001111010111000010100101 e
b1111100 Q
b1011100001010011 R
0P
b100011110101110000101010 S
b1000000000000000000000000000001 :
b1000000000000000000000000000001 @
b1000000000000000000000000000001 T
b11100001 W
b111100110001010 9
b111100110001010 V
b111100110001010 Y
b111101011100001010001111011000 >
b11101011 =
b11101011 U
b111010111000 2
b111010111000 j
b111000010100011110101110000100 g
b1000111101011100001010001111101 f
b1000111101011100001010001111100 h
b1000111101011100001010001111100 i
b11100 _
b11100 `
b111101111111000 X
1#
#300000
0#
#305000
b1111011111110 !
b1111011111110 5
b1111011111110 4
b1111011111110 8
b1001100110011001100110011001110 e
b11101 _
b11101 `
b111000010100 2
b111000010100 j
b110101110000101000111101011011 g
b1001010001111010111000010100110 f
b1001010001111010111000010100101 h
b1001010001111010111000010100101 i
b11110101 =
b11110101 U
b1000000000000000000000000000001 >
b111101111111000 9
b111101111111000 V
b111101111111000 Y
b11101011 W
b1000010100011110101110000101010 :
b1000010100011110101110000101010 @
b1000010100011110101110000101010 T
1P
b111101011100001010011 S
1O
b1010001111100 R
b10100101 Q
b111110110110000 X
1#
#310000
0#
#315000
b1111101101100 !
b1111101101100 5
b1111101101100 4
b1111101101100 8
b1001111010111000010100011110111 e
b11001110 Q
0O
b111000010100101 R
0P
b101011100001010001111100 S
b1000101000111101011100001010011 :
b1000101000111101011100001010011 @
b1000101000111101011100001010011 T
b11110101 W
b111110110110000 9
b111110110110000 V
b111110110110000 Y
b1000010100011110101110000101010 >
b100000000 =
b100000000 U
b110101110000 2
b110101110000 j
b110011001100110011001100110010 g
b1001100110011001100110011001111 f
b1001100110011001100110011001110 h
b1001100110011001100110011001110 i
b11110 _
b11110 `
b111111011110000 X
1#
#320000
0#
#325000
b1111110111100 !
b1111110111100 5
b1111110111100 4
b1111110111100 8
b1010001111010111000010100100000 e
b11111 _
b11111 `
b110011001100 2
b110011001100 j
b110000101000111101011100001001 g
b1001111010111000010100011111000 f
b1001111010111000010100011110111 h
b1001111010111000010100011110111 i
b100001010 =
b100001010 U
b1000101000111101011100001010011 >
b111111011110000 9
b111111011110000 V
b111111011110000 Y
b11111111 W
b1000111101011100001010001111100 :
b1000111101011100001010001111100 @
b1000111101011100001010001111100 T
1P
b1111010111000010100101 S
b1100110011001110 R
b11110111 Q
b111111110110101 X
1#
#330000
0#
#335000
b1111111101101 !
b1111111101101 5
b1111111101101 4
b1111111101101 8
b1010100011110101110000101001001 e
1N
b100000 Q
1O
b10100011110111 R
0P
b110011001100110011001110 S
b1001010001111010111000010100101 :
b1001010001111010111000010100101 @
b1001010001111010111000010100101 T
b11110101 W
b111111110110101 9
b111111110110101 V
b111111110110101 Y
b1000111101011100001010001111100 >
b100010100 =
b100010100 U
b110000101000 2
b110000101000 j
b101110000101000111101011100000 g
b1010001111010111000010100100001 f
b1010001111010111000010100100000 h
b1010001111010111000010100100000 i
b100000 _
b100000 `
b111111111111111 X
1#
#340000
0#
#345000
b1111111111111 !
b1111111111111 5
b1111111111111 4
b1111111111111 8
b1010111000010100011110101110010 e
b100001 _
b100001 `
b101110000101 2
b101110000101 j
b101011100001010001111010110111 g
b1010100011110101110000101001010 f
b1010100011110101110000101001001 h
b1010100011110101110000101001001 i
b100011110 =
b100011110 U
b1001010001111010111000010100101 >
b111111111111111 9
b111111111111111 V
b111111111111111 Y
b11101011 W
b1001100110011001100110011001110 :
b1001100110011001100110011001110 @
b1001100110011001100110011001110 T
1P
b10111000010100011110111 S
0O
b1000010100100000 R
0N
b1001001 Q
b111111110110101 X
1#
#350000
0#
#355000
b1111111101101 !
b1111111101101 5
b1111111101101 4
b1111111101101 8
b1011001100110011001100110011011 e
b1110010 Q
b1110000101001001 R
0P
b111010111000010100100000 S
b1001111010111000010100011110111 :
b1001111010111000010100011110111 @
b1001111010111000010100011110111 T
b11100001 W
b111111110110101 9
b111111110110101 V
b111111110110101 Y
b1001100110011001100110011001110 >
b100101000 =
b100101000 U
b101011100001 2
b101011100001 j
b101000111101011100001010001110 g
b1010111000010100011110101110011 f
b1010111000010100011110101110010 h
b1010111000010100011110101110010 i
b100010 _
b100010 `
b111111011110000 X
1#
#360000
0#
#365000
b1111110111100 !
b1111110111100 5
b1111110111100 4
b1111110111100 8
b1011100001010001111010111000100 e
b100011 _
b100011 `
b101000111101 2
b101000111101 j
b100110011001100110011001100101 g
b1011001100110011001100110011100 f
b1011001100110011001100110011011 h
b1011001100110011001100110011011 i
b100110011 =
b100110011 U
b1001111010111000010100011110111 >
b111111011110000 9
b111111011110000 V
b111111011110000 Y
b11010111 W
b1010001111010111000010100100000 :
b1010001111010111000010100100000 @
b1010001111010111000010100100000 T
1P
b11110101110000101001001 S
1O
b11110101110010 R
b10011011 Q
b111110110110000 X
1#
#370000
0#
#375000
b1111101101100 !
b1111101101100 5
b1111101101100 4
b1111101101100 8
b1011110101110000101000111101101 e
b11000100 Q
0O
b1001100110011011 R
b10100011110101110010 S
b1010100011110101110000101001001 :
b1010100011110101110000101001001 @
b1010100011110101110000101001001 T
b11001100 W
b111110110110000 9
b111110110110000 V
b111110110110000 Y
b1010001111010111000010100100000 >
b100111101 =
b100111101 U
b100110011001 2
b100110011001 j
b100011110101110000101000111100 g
b1011100001010001111010111000101 f
b1011100001010001111010111000100 h
b1011100001010001111010111000100 i
b100100 _
b100100 `
b111101111111000 X
1#
#380000
0#
#385000
b1111011111110 !
b1111011111110 5
b1111011111110 4
b1111011111110 8
b1100001010001111010111000010110 e
b100101 _
b100101 `
b100011110101 2
b100011110101 j
b100001010001111010111000010011 g
b1011110101110000101000111101110 f
b1011110101110000101000111101101 h
b1011110101110000101000111101101 i
b101000111 =
b101000111 U
b1010100011110101110000101001001 >
b111101111111000 9
b111101111111000 V
b111101111111000 Y
b11000010 W
b1010111000010100011110101110010 :
b1010111000010100011110101110010 @
b1010111000010100011110101110010 T
0P
b100110011001100110011011 S
b1111010111000100 R
b11101101 Q
b111100110001010 X
1#
#390000
0#
#395000
b1111001100010 !
b1111001100010 5
b1111001100010 4
b1111001100010 8
b1100011110101110000101000111111 e
1N
b10110 Q
1O
b101000111101101 R
1P
b1010001111010111000100 S
b1011001100110011001100110011011 :
b1011001100110011001100110011011 @
b1011001100110011001100110011011 T
b10111000 W
b111100110001010 9
b111100110001010 V
b111100110001010 Y
b1010111000010100011110101110010 >
b101010001 =
b101010001 U
b100001010001 2
b100001010001 j
b11110101110000101000111101010 g
b1100001010001111010111000010111 f
b1100001010001111010111000010110 h
b1100001010001111010111000010110 i
b100110 _
b100110 `
b111011011011001 X
1#
#400000
0#
#405000
b1110110110110 !
b1110110110110 5
b1110110110110 4
b1110110110110 8
b1100110011001100110011001101000 e
b100111 _
b100111 `
b11110101110 2
b11110101110 j
b11100001010001111010111000001 g
b1100011110101110000101001000000 f
b1100011110101110000101000111111 h
b1100011110101110000101000111111 i
b101011100 =
b101011100 U
b1011001100110011001100110011011 >
b111011011011001 9
b111011011011001 V
b111011011011001 Y
b10101110 W
b1011100001010001111010111000100 :
b1011100001010001111010111000100 @
b1011100001010001111010111000100 T
0P
b101110000101000111101101 S
0O
b1010111000010110 R
0N
b111111 Q
b111001110110101 X
1#
#410000
0#
#415000
b1110011101101 !
b1110011101101 5
b1110011101101 4
b1110011101101 8
b1101000111101011100001010010001 e
b1101000 Q
1O
b101000111111 R
1P
b10001111010111000010110 S
b1011110101110000101000111101101 :
b1011110101110000101000111101101 @
b1011110101110000101000111101101 T
b10100011 W
b111001110110101 9
b111001110110101 V
b111001110110101 Y
b1011100001010001111010111000100 >
b101100110 =
b101100110 U
b11100001010 2
b11100001010 j
b11001100110011001100110011000 g
b1100110011001100110011001101001 f
b1100110011001100110011001101000 h
b1100110011001100110011001101000 i
b101000 _
b101000 `
b111000000100011 X
1#
#420000
0#
#425000
b1110000001000 !
b1110000001000 5
b1110000001000 4
b1110000001000 8
b1101011100001010001111010111010 e
b101001 _
b101001 `
b11001100110 2
b11001100110 j
b10111000010100011110101101111 g
b1101000111101011100001010010010 f
b1101000111101011100001010010001 h
b1101000111101011100001010010001 i
b101110000 =
b101110000 U
b1011110101110000101000111101101 >
b111000000100011 9
b111000000100011 V
b111000000100011 Y
b10011001 W
b1100001010001111010111000010110 :
b1100001010001111010111000010110 @
b1100001010001111010111000010110 T
0P
b110101110000101000111111 S
0O
b110011001101000 R
b10010001 Q
b110101110111000 X
1#
#430000
0#
#435000
b1101011101110 !
b1101011101110 5
b1101011101110 4
b1101011101110 8
b1101110000101000111101011100011 e
b10111010 Q
b1100001010010001 R
1P
b11001100110011001101000 S
b1100011110101110000101000111111 :
b1100011110101110000101000111111 @
b1100011110101110000101000111111 T
b10001111 W
b110101110111000 9
b110101110111000 V
b110101110111000 Y
b1100001010001111010111000010110 >
b101111010 =
b101111010 U
b10111000010 2
b10111000010 j
b10100011110101110000101000110 g
b1101011100001010001111010111011 f
b1101011100001010001111010111010 h
b1101011100001010001111010111010 i
b101010 _
b101010 `
b110011101000110 X
1#
#440000
0#
#445000
b1100111010001 !
b1100111010001 5
b1100111010001 4
b1100111010001 8
b1110000101000111101011100001100 e
b101011 _
b101011 `
b10100011110 2
b10100011110 j
b10001111010111000010100011101 g
b1101110000101000111101011100100 f
b1101110000101000111101011100011 h
b1101110000101000111101011100011 i
b110000101 =
b110000101 U
b1100011110101110000101000111111 >
b110011101000110 9
b110011101000110 V
b110011101000110 Y
b10000101 W
b1100110011001100110011001101000 :
b1100110011001100110011001101000 @
b1100110011001100110011001101000 T
0P
b111101011100001010010001 S
1O
b1111010111010 R
b11100011 Q
b110001001110001 X
1#
#450000
0#
#455000
b1100010011100 !
b1100010011100 5
b1100010011100 4
b1100010011100 8
b1110011001100110011001100110101 e
1N
b1100 Q
0O
b111101011100011 R
1P
b100001010001111010111010 S
b1101000111101011100001010010001 :
b1101000111101011100001010010001 @
b1101000111101011100001010010001 T
b1111010 W
b110001001110001 9
b110001001110001 V
b110001001110001 Y
b1100110011001100110011001101000 >
b110001111 =
b110001111 U
b10001111010 2
b10001111010 j
b1111010111000010100011110100 g
b1110000101000111101011100001101 f
b1110000101000111101011100001100 h
b1110000101000111101011100001100 i
b101100 _
b101100 `
b101110100111110 X
1#
#460000
0#
#465000
b1011101001111 !
b1011101001111 5
b1011101001111 4
b1011101001111 8
b1110101110000101000111101011110 e
b101101 _
b101101 `
b1111010111 2
b1111010111 j
b1100110011001100110011001011 g
b1110011001100110011001100110110 f
b1110011001100110011001100110101 h
b1110011001100110011001100110101 i
b110011001 =
b110011001 U
b1101000111101011100001010010001 >
b101110100111110 9
b101110100111110 V
b101110100111110 Y
b1110000 W
b1101011100001010001111010111010 :
b1101011100001010001111010111010 @
b1101011100001010001111010111010 T
b101000111101011100011 S
b1101011100001100 R
0N
b110101 Q
b101011100011101 X
1#
#470000
0#
