FPGA/user/sim/tb_sin_dds.vcd
$date
	Thu May 29 22:53:09 2025
$end
$version
	Icarus Verilog
$end
$timescale
	1ps
$end
$scope module tb_sin_dds $end
$var wire 14 ! wave_sin [13:0] $end
$var reg 1 " clk $end
$var reg 32 # fre_word [31:0] $end
$var reg 32 $ pha_word [31:0] $end
$var reg 1 % rstn $end
$scope module u_sin_dds $end
$var wire 1 " clock $end
$var wire 32 & fre_word [31:0] $end
$var wire 32 ' pha_word [31:0] $end
$var wire 1 % rstn $end
$var wire 14 ( wave_sin [13:0] $end
$var wire 16 ) douta [15:0] $end
$var wire 32 * Q [31:0] $end
$var parameter 32 + OUTPUT_WIDTH $end
$var parameter 32 , PHASE_WIDTH $end
$var reg 10 - addr [9:0] $end
$var reg 32 . phase [31:0] $end
$scope module u_accumlator $end
$var wire 32 / D [31:0] $end
$var wire 32 0 Q [31:0] $end
$var wire 1 1 add_sub $end
$var wire 1 " clock $end
$var wire 1 2 clr $end
$var wire 1 % rstn $end
$var parameter 32 3 DATA_WIDTH $end
$var parameter 32 4 WIDTH $end
$var reg 1 5 add_sub0 $end
$var reg 1 6 add_sub1 $end
$var reg 1 7 add_sub2 $end
$var reg 33 8 b_tmp0 [32:0] $end
$var reg 33 9 b_tmp1 [32:0] $end
$var reg 33 : b_tmp2 [32:0] $end
$var reg 1 ; clr0 $end
$var reg 1 < clr1 $end
$var reg 1 = clr2 $end
$var reg 1 > count0 $end
$var reg 1 ? count1 $end
$var reg 1 @ count2 $end
$var reg 8 A sum0 [7:0] $end
$var reg 16 B sum1 [15:0] $end
$var reg 24 C sum2 [23:0] $end
$var reg 32 D sum3 [31:0] $end
$upscope $end
$scope module u_sin_rom $end
$var wire 10 E addra [9:0] $end
$var wire 1 " clka $end
$var wire 1 % rstn $end
$var wire 16 F douta [15:0] $end
$var reg 8 G addr [7:0] $end
$var reg 16 H douta_buf [15:0] $end
$var reg 16 I sin [15:0] $end
$var reg 2 J state [1:0] $end
$upscope $end
$upscope $end
$upscope $end
$enddefinitions $end
$comment Show the parameter values. $end
$dumpall
b100000 4
b1000 3
b100000 ,
b1110 +
$end
#0
$dumpvars
b0 J
b0 I
bx H
b0 G
b0 F
b0 E
b0 D
b0 C
b0 B
b0 A
0@
0?
0>
0=
0<
0;
b0 :
b0 9
b0 8
07
06
05
02
01
b0 0
b10100011110101110000101001 /
b0 .
b0 -
b0 *
b0 )
b0 (
b0 '
b10100011110101110000101001 &
0%
b0 $
b10100011110101110000101001 #
0"
b0 !
$end
#5000
b0 H
1"
#10000
0"
#15000
1"
#20000
0"
1%
#25000
b10100011110101110000101001 8
b101001 A
1"
#30000
0"
#35000
b1010010 A
b10100011110101110000101001 9
b101110000101001 B
1"
#40000
0"
#45000
b10100011110101110000101001 :
b100011110101110000101001 C
b1011100001010010 B
b1111011 A
1"
#50000
0"
#55000
b10100100 A
1?
b1010001111011 B
1@
b111101011100001010010 C
b10100011110101110000101001 *
b10100011110101110000101001 0
b10100011110101110000101001 D
1"
#60000
0"
#65000
b10100011110101110000101001 .
b101000111101011100001010010 *
b101000111101011100001010010 0
b101000111101011100001010010 D
0@
b101011100001010001111011 C
0?
b111000010100100 B
b11001101 A
1"
#70000
0"
#75000
b11110110 A
b1100110011001101 B
1@
b1111010111000010100100 C
b111101011100001010001111011 *
b111101011100001010001111011 0
b111101011100001010001111011 D
b101000111101011100001010010 .
b1010 -
b1010 E
1"
#80000
0"
#85000
b10100 -
b10100 E
b111101011100001010001111011 .
b1010 G
b1010001111010111000010100100 *
b1010001111010111000010100100 0
b1010001111010111000010100100 D
0@
b110011001100110011001101 C
1?
b10100011110110 B
1>
b11111 A
1"
#90000
0"
#95000
0>
b1001000 A
0?
b1000010100011111 B
1@
b10111000010100011110110 C
b1100110011001100110011001101 *
b1100110011001100110011001101 0
b1100110011001100110011001101 D
b10100 G
b1010001111010111000010100100 .
b11110 -
b11110 E
b11111011001 H
1"
#100000
0"
#105000
b111110110 !
b111110110 (
b101000 -
b101000 E
b1100110011001100110011001101 .
b11111011001 )
b11111011001 F
b11111011001 I
b11110 G
b1111010111000010100011110110 *
b1111010111000010100011110110 0
b1111010111000010100011110110 D
0@
b111010111000010100011111 C
b1110000101001000 B
b1110001 A
b111110101011 H
1"
#110000
0"
#115000
b1111101010 !
b1111101010 (
b10011010 A
1?
b11110101110001 B
1@
b11110101110000101001000 C
b10001111010111000010100011111 *
b10001111010111000010100011111 0
b10001111010111000010100011111 D
b101000 G
b111110101011 )
b111110101011 F
b111110101011 I
b1111010111000010100011110110 .
b110011 -
b110011 E
b1011101101101 H
1"
#120000
0"
#125000
b10111011011 !
b10111011011 (
b111101 -
b111101 E
b10001111010111000010100011111 .
b1011101101101 )
b1011101101101 F
b1011101101101 I
b110011 G
b10100011110101110000101001000 *
b10100011110101110000101001000 0
b10100011110101110000101001000 D
b10100011110101110001 C
0?
b1001100110011010 B
b11000011 A
b1111100011001 H
1"
#130000
0"
#135000
b11111000110 !
b11111000110 (
b11101100 A
b1111010111000011 B
0@
b100110011001100110011010 C
b10111000010100011110101110001 *
b10111000010100011110101110001 0
b10111000010100011110101110001 D
b111101 G
b1111100011001 )
b1111100011001 F
b1111100011001 I
b10100011110101110000101001000 .
b1000111 -
b1000111 E
b10011101100111 H
1"
#140000
0"
#145000
b100111011001 !
b100111011001 (
b1010001 -
b1010001 E
b10111000010100011110101110001 .
b10011101100111 )
b10011101100111 F
b10011101100111 I
b1000111 G
b11001100110011001100110011010 *
b11001100110011001100110011010 0
b11001100110011001100110011010 D
1@
b1010001111010111000011 C
1?
b101000111101100 B
1>
b10101 A
b10111011001100 H
1"
#150000
0"
#155000
b101110110011 !
b101110110011 (
0>
b111110 A
0?
b1010111000010101 B
0@
b101110000101000111101100 C
b11100001010001111010111000011 *
b11100001010001111010111000011 0
b11100001010001111010111000011 D
b1010001 G
b10111011001100 )
b10111011001100 F
b10111011001100 I
b11001100110011001100110011010 .
b1011100 -
b1011100 E
b11011000000100 H
1"
#160000
0"
#165000
b110110000001 !
b110110000001 (
b1100110 -
b1100110 E
b11100001010001111010111000011 .
b11011000000100 )
b11011000000100 F
b11011000000100 I
b1011100 G
b11110101110000101000111101100 *
b11110101110000101000111101100 0
b11110101110000101000111101100 D
1@
b10001111010111000010101 C
1?
b101000111110 B
b1100111 A
b11110100000111 H
1"
#170000
0"
#175000
b111101000001 !
b111101000001 (
b10010000 A
0?
b110011001100111 B
0@
b110101110000101000111110 C
b100001010001111010111000010101 *
b100001010001111010111000010101 0
b100001010001111010111000010101 D
b1100110 G
b11110100000111 )
b11110100000111 F
b11110100000111 I
b11110101110000101000111101100 .
b1110000 -
b1110000 E
b100010001111010 H
1"
#180000
0"
#185000
b1000100011110 !
b1000100011110 (
b1111010 -
b1111010 E
b100001010001111010111000010101 .
b100010001111010 )
b100010001111010 F
b100010001111010 I
b1110000 G
b100011110101110000101000111110 *
b100011110101110000101000111110 0
b100011110101110000101000111110 D
1@
b11001100110011001100111 C
b1100001010010000 B
b10111001 A
b100101011111011 H
1"
#190000
0"
#195000
b1001010111110 !
b1001010111110 (
b11100010 A
1?
b1111010111001 B
0@
b111101011100001010010000 C
b100110011001100110011001100111 *
b100110011001100110011001100111 0
b100110011001100110011001100111 D
b1111010 G
b100101011111011 )
b100101011111011 F
b100101011111011 I
b100011110101110000101000111110 .
b10000101 -
b10000101 E
b101000100110011 H
1"
#200000
0"
#205000
b1010001001100 !
b1010001001100 (
b10001111 -
b10001111 E
b100110011001100110011001100111 .
b101000100110011 )
b101000100110011 F
b101000100110011 I
b10000101 G
b101000111101011100001010010000 *
b101000111101011100001010010000 0
b101000111101011100001010010000 D
1@
b100001010001111010111001 C
0?
b111101011100010 B
1>
b1011 A
b101011100011101 H
1"
#210000
0"
#215000
b1010111000111 !
b1010111000111 (
0>
b110100 A
b1101011100001011 B
b101000111101011100010 C
b101011100001010001111010111001 *
b101011100001010001111010111001 0
b101011100001010001111010111001 D
b10001111 G
b101011100011101 )
b101011100011101 F
b101011100011101 I
b101000111101011100001010010000 .
b10011001 -
b10011001 E
b101110100111110 H
1"
#220000
0"
#225000
b1011101001111 !
b1011101001111 (
b10100011 -
b10100011 E
b101011100001010001111010111001 .
b101110100111110 )
b101110100111110 F
b101110100111110 I
b10011001 G
b101110000101000111101011100010 *
b101110000101000111101011100010 0
b101110000101000111101011100010 D
0@
b101000111101011100001011 C
1?
b11001100110100 B
b1011101 A
b110001001110001 H
1"
#230000
0"
#235000
b1100010011100 !
b1100010011100 (
b10000110 A
0?
b1000111101011101 B
1@
b1100110011001100110100 C
b110000101000111101011100001011 *
b110000101000111101011100001011 0
b110000101000111101011100001011 D
b10100011 G
b110001001110001 )
b110001001110001 F
b110001001110001 I
b101110000101000111101011100010 .
b10101110 -
b10101110 E
b110011101000110 H
1"
#240000
0"
#245000
b1100111010001 !
b1100111010001 (
b10111000 -
b10111000 E
b110000101000111101011100001011 .
b110011101000110 )
b110011101000110 F
b110011101000110 I
b10101110 G
b110011001100110011001100110100 *
b110011001100110011001100110100 0
b110011001100110011001100110100 D
0@
b110000101000111101011101 C
b1110101110000110 B
b10101111 A
b110101110111000 H
1"
#250000
0"
#255000
b1101011101110 !
b1101011101110 (
b11011000 A
1?
b100011110101111 B
1@
b10100011110101110000110 C
b110101110000101000111101011101 *
b110101110000101000111101011101 0
b110101110000101000111101011101 D
b10111000 G
b110101110111000 )
b110101110111000 F
b110101110111000 I
b110011001100110011001100110100 .
b11000010 -
b11000010 E
b111000000100011 H
1"
#260000
0"
#265000
b1110000001000 !
b1110000001000 (
b11001100 -
b11001100 E
b110101110000101000111101011101 .
b111000000100011 )
b111000000100011 F
b111000000100011 I
b11000010 G
b111000010100011110101110000110 *
b111000010100011110101110000110 0
b111000010100011110101110000110 D
0@
b111000010100011110101111 C
0?
b1010001111011000 B
1>
b1 A
b111001110110101 H
1"
#270000
0"
#275000
b1110011101101 !
b1110011101101 (
0>
b101010 A
1?
b1 B
1@
b11100001010001111011000 C
b111010111000010100011110101111 *
b111010111000010100011110101111 0
b111010111000010100011110101111 D
b11001100 G
b111001110110101 )
b111001110110101 F
b111001110110101 I
b111000010100011110101110000110 .
b11010111 -
b11010111 E
b111011011011001 H
1"
#280000
0"
#285000
b1110110110110 !
b1110110110110 (
b11100001 -
b11100001 E
b111010111000010100011110101111 .
b111011011011001 )
b111011011011001 F
b111011011011001 I
b11010111 G
b111101011100001010001111011000 *
b111101011100001010001111011000 0
b111101011100001010001111011000 D
b1 C
0?
b101110000101010 B
b1010011 A
b111100110001010 H
1"
#290000
0"
#295000
b1111001100010 !
b1111001100010 (
b1111100 A
b1011100001010011 B
0@
b100011110101110000101010 C
b1000000000000000000000000000001 *
b1000000000000000000000000000001 0
b1000000000000000000000000000001 D
b11100001 G
b111100110001010 )
b111100110001010 F
b111100110001010 I
b111101011100001010001111011000 .
b11101011 -
b11101011 E
b111101111111000 H
1"
#300000
0"
#305000
b1111011111110 !
b1111011111110 (
b11110101 -
b11110101 E
b1000000000000000000000000000001 .
b111101111111000 )
b111101111111000 F
b111101111111000 I
b11101011 G
b1000010100011110101110000101010 *
b1000010100011110101110000101010 0
b1000010100011110101110000101010 D
1@
b111101011100001010011 C
1?
b1010001111100 B
b10100101 A
b111110110110000 H
1"
#310000
0"
#315000
b1111101101100 !
b1111101101100 (
b11001110 A
0?
b111000010100101 B
0@
b101011100001010001111100 C
b1000101000111101011100001010011 *
b1000101000111101011100001010011 0
b1000101000111101011100001010011 D
b11110101 G
b111110110110000 )
b111110110110000 F
b111110110110000 I
b1000010100011110101110000101010 .
b100000000 -
b100000000 E
b111111011110000 H
1"
#320000
0"
#325000
b1111110111100 !
b1111110111100 (
b100001010 -
b100001010 E
b1000101000111101011100001010011 .
b111111011110000 )
b111111011110000 F
b111111011110000 I
b11111111 G
b1000111101011100001010001111100 *
b1000111101011100001010001111100 0
b1000111101011100001010001111100 D
1@
b1111010111000010100101 C
b1100110011001110 B
b11110111 A
b111111110110101 H
1"
#330000
0"
#335000
b1111111101101 !
b1111111101101 (
1>
b100000 A
1?
b10100011110111 B
0@
b110011001100110011001110 C
b1001010001111010111000010100101 *
b1001010001111010111000010100101 0
b1001010001111010111000010100101 D
b11110101 G
b111111110110101 )
b111111110110101 F
b111111110110101 I
b1000111101011100001010001111100 .
b100010100 -
b100010100 E
b111111111111111 H
1"
#340000
0"
#345000
b1111111111111 !
b1111111111111 (
b100011110 -
b100011110 E
b1001010001111010111000010100101 .
b111111111111111 )
b111111111111111 F
b111111111111111 I
b11101011 G
b1001100110011001100110011001110 *
b1001100110011001100110011001110 0
b1001100110011001100110011001110 D
1@
b10111000010100011110111 C
0?
b1000010100100000 B
0>
b1001001 A
b111111110110101 H
1"
#350000
0"
#355000
b1111111101101 !
b1111111101101 (
b1110010 A
b1110000101001001 B
0@
b111010111000010100100000 C
b1001111010111000010100011110111 *
b1001111010111000010100011110111 0
b1001111010111000010100011110111 D
b11100001 G
b111111110110101 )
b111111110110101 F
b111111110110101 I
b1001100110011001100110011001110 .
b100101000 -
b100101000 E
b111111011110000 H
1"
#360000
0"
#365000
b1111110111100 !
b1111110111100 (
b100110011 -
b100110011 E
b1001111010111000010100011110111 .
b111111011110000 )
b111111011110000 F
b111111011110000 I
b11010111 G
b1010001111010111000010100100000 *
b1010001111010111000010100100000 0
b1010001111010111000010100100000 D
1@
b11110101110000101001001 C
1?
b11110101110010 B
b10011011 A
b111110110110000 H
1"
#370000
0"
#375000
b1111101101100 !
b1111101101100 (
b11000100 A
0?
b1001100110011011 B
b10100011110101110010 C
b1010100011110101110000101001001 *
b1010100011110101110000101001001 0
b1010100011110101110000101001001 D
b11001100 G
b111110110110000 )
b111110110110000 F
b111110110110000 I
b1010001111010111000010100100000 .
b100111101 -
b100111101 E
b111101111111000 H
1"
#380000
0"
#385000
b1111011111110 !
b1111011111110 (
b101000111 -
b101000111 E
b1010100011110101110000101001001 .
b111101111111000 )
b111101111111000 F
b111101111111000 I
b11000010 G
b1010111000010100011110101110010 *
b1010111000010100011110101110010 0
b1010111000010100011110101110010 D
0@
b100110011001100110011011 C
b1111010111000100 B
b11101101 A
b111100110001010 H
1"
#390000
0"
#395000
b1111001100010 !
b1111001100010 (
1>
b10110 A
1?
b101000111101101 B
1@
b1010001111010111000100 C
b1011001100110011001100110011011 *
b1011001100110011001100110011011 0
b1011001100110011001100110011011 D
b10111000 G
b111100110001010 )
b111100110001010 F
b111100110001010 I
b1010111000010100011110101110010 .
b101010001 -
b101010001 E
b111011011011001 H
1"
#400000
0"
#405000
b1110110110110 !
b1110110110110 (
b101011100 -
b101011100 E
b1011001100110011001100110011011 .
b111011011011001 )
b111011011011001 F
b111011011011001 I
b10101110 G
b1011100001010001111010111000100 *
b1011100001010001111010111000100 0
b1011100001010001111010111000100 D
0@
b101110000101000111101101 C
0?
b1010111000010110 B
0>
b111111 A
b111001110110101 H
1"
#410000
0"
#415000
b1110011101101 !
b1110011101101 (
b1101000 A
1?
b101000111111 B
1@
b10001111010111000010110 C
b1011110101110000101000111101101 *
b1011110101110000101000111101101 0
b1011110101110000101000111101101 D
b10100011 G
b111001110110101 )
b111001110110101 F
b111001110110101 I
b1011100001010001111010111000100 .
b101100110 -
b101100110 E
b111000000100011 H
1"
#420000
0"
#425000
b1110000001000 !
b1110000001000 (
b101110000 -
b101110000 E
b1011110101110000101000111101101 .
b111000000100011 )
b111000000100011 F
b111000000100011 I
b10011001 G
b1100001010001111010111000010110 *
b1100001010001111010111000010110 0
b1100001010001111010111000010110 D
0@
b110101110000101000111111 C
0?
b110011001101000 B
b10010001 A
b110101110111000 H
1"
#430000
0"
#435000
b1101011101110 !
b1101011101110 (
b10111010 A
b1100001010010001 B
1@
b11001100110011001101000 C
b1100011110101110000101000111111 *
b1100011110101110000101000111111 0
b1100011110101110000101000111111 D
b10001111 G
b110101110111000 )
b110101110111000 F
b110101110111000 I
b1100001010001111010111000010110 .
b101111010 -
b101111010 E
b110011101000110 H
1"
#440000
0"
#445000
b1100111010001 !
b1100111010001 (
b110000101 -
b110000101 E
b1100011110101110000101000111111 .
b110011101000110 )
b110011101000110 F
b110011101000110 I
b10000101 G
b1100110011001100110011001101000 *
b1100110011001100110011001101000 0
b1100110011001100110011001101000 D
0@
b111101011100001010010001 C
1?
b1111010111010 B
b11100011 A
b110001001110001 H
1"
#450000
0"
#455000
b1100010011100 !
b1100010011100 (
1>
b1100 A
0?
b111101011100011 B
1@
b100001010001111010111010 C
b1101000111101011100001010010001 *
b1101000111101011100001010010001 0
b1101000111101011100001010010001 D
b1111010 G
b110001001110001 )
b110001001110001 F
b110001001110001 I
b1100110011001100110011001101000 .
b110001111 -
b110001111 E
b101110100111110 H
1"
#460000
0"
#465000
b1011101001111 !
b1011101001111 (
b110011001 -
b110011001 E
b1101000111101011100001010010001 .
b101110100111110 )
b101110100111110 F
b101110100111110 I
b1110000 G
b1101011100001010001111010111010 *
b1101011100001010001111010111010 0
b1101011100001010001111010111010 D
b101000111101011100011 C
b1101011100001100 B
0>
b110101 A
b101011100011101 H
1"
#470000
0"
#475000
b1010111000111 !
b1010111000111 (
b1011110 A
1?
b11001100110101 B
0@
b101000111101011100001100 C
b1101110000101000111101011100011 *
b1101110000101000111101011100011 0
b1101110000101000111101011100011 D
b1100110 G
b101011100011101 )
b101011100011101 F
b101011100011101 I
b1101011100001010001111010111010 .
b110100011 -
b110100011 E
b101000100110011 H
1"
#480000
0"
#485000
b1010001001100 !
b1010001001100 (
b110101110 -
b110101110 E
b1101110000101000111101011100011 .
b101000100110011 )
b101000100110011 F
b101000100110011 I
b1011100 G
b1110000101000111101011100001100 *
b1110000101000111101011100001100 0
b1110000101000111101011100001100 D
1@
b1100110011001100110101 C
0?
b1000111101011110 B
b10000111 A
b100101011111011 H
1"
#490000
0"
#495000
b1001010111110 !
b1001010111110 (
b10110000 A
b1110101110000111 B
0@
b110000101000111101011110 C
b1110011001100110011001100110101 *
b1110011001100110011001100110101 0
b1110011001100110011001100110101 D
b1010001 G
b100101011111011 )
b100101011111011 F
b100101011111011 I
b1110000101000111101011100001100 .
b110111000 -
b110111000 E
b100010001111010 H
1"
#500000
0"
#505000
b1000100011110 !
b1000100011110 (
b111000010 -
b111000010 E
b1110011001100110011001100110101 .
b100010001111010 )
b100010001111010 F
b100010001111010 I
b1000111 G
b1110101110000101000111101011110 *
b1110101110000101000111101011110 0
b1110101110000101000111101011110 D
1@
b10100011110101110000111 C
1?
b100011110110000 B
b11011001 A
b11110100000111 H
1"
#510000
0"
#515000
b111101000001 !
b111101000001 (
1>
b10 A
0?
b1010001111011001 B
0@
b111000010100011110110000 C
b1111000010100011110101110000111 *
b1111000010100011110101110000111 0
b1111000010100011110101110000111 D
b111101 G
b11110100000111 )
b11110100000111 F
b11110100000111 I
b1110101110000101000111101011110 .
b111001100 -
b111001100 E
b11011000000100 H
1"
#520000
0"
#525000
b110110000001 !
b110110000001 (
b111010111 -
b111010111 E
b1111000010100011110101110000111 .
b11011000000100 )
b11011000000100 F
b11011000000100 I
b110011 G
b1111010111000010100011110110000 *
b1111010111000010100011110110000 0
b1111010111000010100011110110000 D
1@
b11100001010001111011001 C
1?
b10 B
0>
b101011 A
b10111011001100 H
1"
#530000
0"
#535000
b101110110011 !
b101110110011 (
b1010100 A
0?
b101110000101011 B
b10 C
b1111101011100001010001111011001 *
b1111101011100001010001111011001 0
b1111101011100001010001111011001 D
b101000 G
b10111011001100 )
b10111011001100 F
b10111011001100 I
b1111010111000010100011110110000 .
b111100001 -
b111100001 E
b10011101100111 H
1"
#540000
0"
#545000
b100111011001 !
b100111011001 (
b111101011 -
b111101011 E
b1111101011100001010001111011001 .
b10011101100111 )
b10011101100111 F
b10011101100111 I
b11110 G
b10000000000000000000000000000010 *
b10000000000000000000000000000010 0
b10000000000000000000000000000010 D
0@
b100011110101110000101011 C
b1011100001010100 B
b1111101 A
b1111100011001 H
1"
#550000
0"
#555000
b11111000110 !
b11111000110 (
b10100110 A
1?
b1010001111101 B
1@
b111101011100001010100 C
b10000010100011110101110000101011 *
b10000010100011110101110000101011 0
b10000010100011110101110000101011 D
b10100 G
b1111100011001 )
b1111100011001 F
b1111100011001 I
b10000000000000000000000000000010 .
b111110101 -
b111110101 E
b1011101101101 H
1"
#560000
0"
#565000
b10111011011 !
b10111011011 (
b1000000000 -
b1000000000 E
b10000010100011110101110000101011 .
b1011101101101 )
b1011101101101 F
b1011101101101 I
b1010 G
b10000101000111101011100001010100 *
b10000101000111101011100001010100 0
b10000101000111101011100001010100 D
0@
b101011100001010001111101 C
0?
b111000010100110 B
b11001111 A
b111110101011 H
1"
#570000
0"
#575000
b1111101010 !
b1111101010 (
b11111000 A
b1100110011001111 B
1@
b1111010111000010100110 C
b10000111101011100001010001111101 *
b10000111101011100001010001111101 0
b10000111101011100001010001111101 D
b0 G
b1 J
b111110101011 )
b111110101011 F
b111110101011 I
b10000101000111101011100001010100 .
b1000001010 -
b1000001010 E
b11111011001 H
1"
#580000
0"
#585000
b111110110 !
b111110110 (
b1000010100 -
b1000010100 E
b10000111101011100001010001111101 .
b11111011001 )
b11111011001 F
b11111011001 I
b11 J
b1010 G
b10001010001111010111000010100110 *
b10001010001111010111000010100110 0
b10001010001111010111000010100110 D
0@
b110011001100110011001111 C
1?
b10100011111000 B
1>
b100001 A
b0 H
1"
#590000
0"
#595000
b11111111111111 !
b11111111111111 (
0>
b1001010 A
0?
b1000010100100001 B
1@
b10111000010100011111000 C
b10001100110011001100110011001111 *
b10001100110011001100110011001111 0
b10001100110011001100110011001111 D
b10100 G
b1111111111111111 )
b1111111111111111 F
b1111111111111111 I
b10001010001111010111000010100110 .
b1000011110 -
b1000011110 E
b11111011001 H
1"
#600000
0"
#605000
b11111000001001 !
b11111000001001 (
b1000101000 -
b1000101000 E
b10001100110011001100110011001111 .
b1111100000100110 )
b1111100000100110 F
b1111100000100110 I
b11110 G
b10001111010111000010100011111000 *
b10001111010111000010100011111000 0
b10001111010111000010100011111000 D
0@
b111010111000010100100001 C
b1110000101001010 B
b1110011 A
b111110101011 H
1"
#610000
0"
#615000
b11110000010101 !
b11110000010101 (
b10011100 A
1?
b11110101110011 B
1@
b11110101110000101001010 C
b10010001111010111000010100100001 *
b10010001111010111000010100100001 0
b10010001111010111000010100100001 D
b101000 G
b1111000001010100 )
b1111000001010100 F
b1111000001010100 I
b10001111010111000010100011111000 .
b1000110011 -
b1000110011 E
b1011101101101 H
1"
#620000
0"
#625000
b11101000100100 !
b11101000100100 (
b1000111101 -
b1000111101 E
b10010001111010111000010100100001 .
b1110100010010010 )
b1110100010010010 F
b1110100010010010 I
b110011 G
b10010100011110101110000101001010 *
b10010100011110101110000101001010 0
b10010100011110101110000101001010 D
b10100011110101110011 C
0?
b1001100110011100 B
b11000101 A
b1111100011001 H
1"
#630000
0"
#635000
b11100000111001 !
b11100000111001 (
b11101110 A
b1111010111000101 B
0@
b100110011001100110011100 C
b10010111000010100011110101110011 *
b10010111000010100011110101110011 0
b10010111000010100011110101110011 D
b111101 G
b1110000011100110 )
b1110000011100110 F
b1110000011100110 I
b10010100011110101110000101001010 .
b1001000111 -
b1001000111 E
b10011101100111 H
1"
#640000
0"
#645000
b11011000100110 !
b11011000100110 (
b1001010001 -
b1001010001 E
b10010111000010100011110101110011 .
b1101100010011000 )
b1101100010011000 F
b1101100010011000 I
b1000111 G
b10011001100110011001100110011100 *
b10011001100110011001100110011100 0
b10011001100110011001100110011100 D
1@
b1010001111010111000101 C
1?
b101000111101110 B
1>
b10111 A
b10111011001100 H
1"
#650000
0"
#655000
b11010001001100 !
b11010001001100 (
0>
b1000000 A
0?
b1010111000010111 B
0@
b101110000101000111101110 C
b10011100001010001111010111000101 *
b10011100001010001111010111000101 0
b10011100001010001111010111000101 D
b1010001 G
b1101000100110011 )
b1101000100110011 F
b1101000100110011 I
b10011001100110011001100110011100 .
b1001011100 -
b1001011100 E
b11011000000100 H
1"
#660000
0"
#665000
b11001001111110 !
b11001001111110 (
b1001100110 -
b1001100110 E
b10011100001010001111010111000101 .
b1100100111111011 )
b1100100111111011 F
b1100100111111011 I
b1011100 G
b10011110101110000101000111101110 *
b10011110101110000101000111101110 0
b10011110101110000101000111101110 D
1@
b10001111010111000010111 C
1?
b101001000000 B
b1101001 A
b11110100000111 H
1"
#670000
0"
#675000
b11000010111110 !
b11000010111110 (
b10010010 A
0?
b110011001101001 B
0@
b110101110000101001000000 C
b10100001010001111010111000010111 *
b10100001010001111010111000010111 0
b10100001010001111010111000010111 D
b1100110 G
b1100001011111000 )
b1100001011111000 F
b1100001011111000 I
b10011110101110000101000111101110 .
b1001110000 -
b1001110000 E
b100010001111010 H
1"
#680000
0"
#685000
b10111011100001 !
b10111011100001 (
b1001111010 -
b1001111010 E
b10100001010001111010111000010111 .
b1011101110000101 )
b1011101110000101 F
b1011101110000101 I
b1110000 G
b10100011110101110000101001000000 *
b10100011110101110000101001000000 0
b10100011110101110000101001000000 D
1@
b11001100110011001101001 C
b1100001010010010 B
b10111011 A
b100101011111011 H
1"
#690000
0"
#695000
b10110101000001 !
b10110101000001 (
b11100100 A
1?
b1111010111011 B
0@
b111101011100001010010010 C
b10100110011001100110011001101001 *
b10100110011001100110011001101001 0
b10100110011001100110011001101001 D
b1111010 G
b1011010100000100 )
b1011010100000100 F
b1011010100000100 I
b10100011110101110000101001000000 .
b1010000101 -
b1010000101 E
b101000100110011 H
1"
#700000
0"
#705000
b10101110110011 !
b10101110110011 (
b1010001111 -
b1010001111 E
b10100110011001100110011001101001 .
b1010111011001100 )
b1010111011001100 F
b1010111011001100 I
b10000101 G
b10101000111101011100001010010010 *
b10101000111101011100001010010010 0
b10101000111101011100001010010010 D
1@
b100001010001111010111011 C
0?
b111101011100100 B
1>
b1101 A
b101011100011101 H
1"
#710000
0"
#715000
b10101000111000 !
b10101000111000 (
0>
b110110 A
b1101011100001101 B
b101000111101011100100 C
b10101011100001010001111010111011 *
b10101011100001010001111010111011 0
b10101011100001010001111010111011 D
b10001111 G
b1010100011100010 )
b1010100011100010 F
b1010100011100010 I
b10101000111101011100001010010010 .
b1010011001 -
b1010011001 E
b101110100111110 H
1"
#720000
0"
#725000
b10100010110000 !
b10100010110000 (
b1010100011 -
b1010100011 E
b10101011100001010001111010111011 .
b1010001011000001 )
b1010001011000001 F
b1010001011000001 I
b10011001 G
b10101110000101000111101011100100 *
b10101110000101000111101011100100 0
b10101110000101000111101011100100 D
0@
b101000111101011100001101 C
1?
b11001100110110 B
b1011111 A
b110001001110001 H
1"
#730000
0"
#735000
b10011101100011 !
b10011101100011 (
b10001000 A
0?
b1000111101011111 B
1@
b1100110011001100110110 C
b10110000101000111101011100001101 *
b10110000101000111101011100001101 0
b10110000101000111101011100001101 D
b10100011 G
b1001110110001110 )
b1001110110001110 F
b1001110110001110 I
b10101110000101000111101011100100 .
b1010101110 -
b1010101110 E
b110011101000110 H
1"
#740000
0"
#745000
b10011000101110 !
b10011000101110 (
b1010111000 -
b1010111000 E
b10110000101000111101011100001101 .
b1001100010111001 )
b1001100010111001 F
b1001100010111001 I
b10101110 G
b10110011001100110011001100110110 *
b10110011001100110011001100110110 0
b10110011001100110011001100110110 D
0@
b110000101000111101011111 C
b1110101110001000 B
b10110001 A
b110101110111000 H
1"
#750000
0"
#755000
b10010100010001 !
b10010100010001 (
b11011010 A
1?
b100011110110001 B
1@
b10100011110101110001000 C
b10110101110000101000111101011111 *
b10110101110000101000111101011111 0
b10110101110000101000111101011111 D
b10111000 G
b1001010001000111 )
b1001010001000111 F
b1001010001000111 I
b10110011001100110011001100110110 .
b1011000010 -
b1011000010 E
b111000000100011 H
1"
#760000
0"
#765000
b10001111110111 !
b10001111110111 (
b1011001100 -
b1011001100 E
b10110101110000101000111101011111 .
b1000111111011100 )
b1000111111011100 F
b1000111111011100 I
b11000010 G
b10111000010100011110101110001000 *
b10111000010100011110101110001000 0
b10111000010100011110101110001000 D
0@
b111000010100011110110001 C
0?
b1010001111011010 B
1>
b11 A
b111001110110101 H
1"
#770000
0"
#775000
b10001100010010 !
b10001100010010 (
0>
b101100 A
1?
b11 B
1@
b11100001010001111011010 C
b10111010111000010100011110110001 *
b10111010111000010100011110110001 0
b10111010111000010100011110110001 D
b11001100 G
b1000110001001010 )
b1000110001001010 F
b1000110001001010 I
b10111000010100011110101110001000 .
b1011010111 -
b1011010111 E
b111011011011001 H
1"
#780000
0"
#785000
b10001001001001 !
b10001001001001 (
b1011100001 -
b1011100001 E
b10111010111000010100011110110001 .
b1000100100100110 )
b1000100100100110 F
b1000100100100110 I
b11010111 G
b10111101011100001010001111011010 *
b10111101011100001010001111011010 0
b10111101011100001010001111011010 D
b11 C
0?
b101110000101100 B
b1010101 A
b111100110001010 H
1"
#790000
0"
#795000
b10000110011101 !
b10000110011101 (
b1111110 A
b1011100001010101 B
0@
b100011110101110000101100 C
b11000000000000000000000000000011 *
b11000000000000000000000000000011 0
b11000000000000000000000000000011 D
b11100001 G
b1000011001110101 )
b1000011001110101 F
b1000011001110101 I
b10111101011100001010001111011010 .
b1011101011 -
b1011101011 E
b111101111111000 H
1"
#800000
0"
#805000
b10000100000001 !
b10000100000001 (
b1011110101 -
b1011110101 E
b11000000000000000000000000000011 .
b1000010000000111 )
b1000010000000111 F
b1000010000000111 I
b11101011 G
b11000010100011110101110000101100 *
b11000010100011110101110000101100 0
b11000010100011110101110000101100 D
1@
b111101011100001010101 C
1?
b1010001111110 B
b10100111 A
b111110110110000 H
1"
#810000
0"
