FPGA/user/sim/tb_sin_rom.vcd
$date
	Thu May 29 20:24:13 2025
$end
$version
	Icarus Verilog
$end
$timescale
	1ps
$end
$scope module tb_sin_rom $end
$var wire 16 ! douta [15:0] $end
$var reg 10 " addr [9:0] $end
$var reg 1 # clk $end
$var reg 1 $ rstn $end
$scope module u_Sin_ROM $end
$var wire 10 % addra [9:0] $end
$var wire 1 # clka $end
$var wire 16 & douta [15:0] $end
$var wire 1 $ rstn $end
$var reg 8 ' addr [7:0] $end
$var reg 16 ( douta_buf [15:0] $end
$var reg 16 ) sin [15:0] $end
$var reg 2 * state [1:0] $end
$upscope $end
$upscope $end
$enddefinitions $end
$comment Show the parameter values. $end
$dumpall
$end
#0
$dumpvars
b0 *
b0 )
bx (
b0 '
b0 &
b0 %
0$
0#
b0 "
b0 !
$end
#5000
b0 (
1#
#10000
0#
#15000
1#
#20000
0#
1$
#25000
1#
#30000
0#
#35000
1#
#40000
0#
b1 "
b1 %
#45000
b1 '
1#
#50000
0#
b10 "
b10 %
#55000
b10 '
b11001001 (
1#
#60000
0#
b11 "
b11 %
#65000
b11001001 !
b11001001 &
b11001001 )
b11 '
b110010010 (
1#
#70000
0#
b100 "
b100 %
#75000
b100 '
b110010010 !
b110010010 &
b110010010 )
b1001011011 (
1#
#80000
0#
b101 "
b101 %
#85000
b1001011011 !
b1001011011 &
b1001011011 )
b101 '
b1100100100 (
1#
#90000
0#
b110 "
b110 %
#95000
b110 '
b1100100100 !
b1100100100 &
b1100100100 )
b1111101101 (
1#
#100000
0#
b111 "
b111 %
#105000
b1111101101 !
b1111101101 &
b1111101101 )
b111 '
b10010110110 (
1#
#110000
0#
b1000 "
b1000 %
#115000
b1000 '
b10010110110 !
b10010110110 &
b10010110110 )
b10101111111 (
1#
#120000
0#
b1001 "
b1001 %
#125000
b10101111111 !
b10101111111 &
b10101111111 )
b1001 '
b11001000111 (
1#
#130000
0#
b1010 "
b1010 %
#135000
b1010 '
b11001000111 !
b11001000111 &
b11001000111 )
b11100010000 (
1#
#140000
0#
b1011 "
b1011 %
#145000
b11100010000 !
b11100010000 &
b11100010000 )
b1011 '
b11111011001 (
1#
#150000
0#
b1100 "
b1100 %
#155000
b1100 '
b11111011001 !
b11111011001 &
b11111011001 )
b100010100010 (
1#
#160000
0#
b1101 "
b1101 %
#165000
b100010100010 !
b100010100010 &
b100010100010 )
b1101 '
b100101101010 (
1#
#170000
0#
b1110 "
b1110 %
#175000
b1110 '
b100101101010 !
b100101101010 &
b100101101010 )
b101000110011 (
1#
#180000
0#
b1111 "
b1111 %
#185000
b101000110011 !
b101000110011 &
b101000110011 )
b1111 '
b101011111011 (
1#
#190000
0#
b10000 "
b10000 %
#195000
b10000 '
b101011111011 !
b101011111011 &
b101011111011 )
b101111000011 (
1#
#200000
0#
b10001 "
b10001 %
#205000
b101111000011 !
b101111000011 &
b101111000011 )
b10001 '
b110010001011 (
1#
#210000
0#
b10010 "
b10010 %
#215000
b10010 '
b110010001011 !
b110010001011 &
b110010001011 )
b110101010011 (
1#
#220000
0#
b10011 "
b10011 %
#225000
b110101010011 !
b110101010011 &
b110101010011 )
b10011 '
b111000011011 (
1#
#230000
0#
b10100 "
b10100 %
#235000
b10100 '
b111000011011 !
b111000011011 &
b111000011011 )
b111011100011 (
1#
#240000
0#
b10101 "
b10101 %
#245000
b111011100011 !
b111011100011 &
b111011100011 )
b10101 '
b111110101011 (
1#
#250000
0#
b10110 "
b10110 %
#255000
b10110 '
b111110101011 !
b111110101011 &
b111110101011 )
b1000001110010 (
1#
#260000
0#
b10111 "
b10111 %
#265000
b1000001110010 !
b1000001110010 &
b1000001110010 )
b10111 '
b1000100111001 (
1#
#270000
0#
b11000 "
b11000 %
#275000
b11000 '
b1000100111001 !
b1000100111001 &
b1000100111001 )
b1001000000001 (
1#
#280000
0#
b11001 "
b11001 %
#285000
b1001000000001 !
b1001000000001 &
b1001000000001 )
b11001 '
b1001011001000 (
1#
#290000
0#
b11010 "
b11010 %
#295000
b11010 '
b1001011001000 !
b1001011001000 &
b1001011001000 )
b1001110001110 (
1#
#300000
0#
b11011 "
b11011 %
#305000
b1001110001110 !
b1001110001110 &
b1001110001110 )
b11011 '
b1010001010101 (
1#
#310000
0#
b11100 "
b11100 %
#315000
b11100 '
b1010001010101 !
b1010001010101 &
b1010001010101 )
b1010100011011 (
1#
#320000
0#
b11101 "
b11101 %
#325000
b1010100011011 !
b1010100011011 &
b1010100011011 )
b11101 '
b1010111100010 (
1#
#330000
0#
b11110 "
b11110 %
#335000
b11110 '
b1010111100010 !
b1010111100010 &
b1010111100010 )
b1011010101000 (
1#
#340000
0#
b11111 "
b11111 %
#345000
b1011010101000 !
b1011010101000 &
b1011010101000 )
b11111 '
b1011101101101 (
1#
#350000
0#
b100000 "
b100000 %
#355000
b100000 '
b1011101101101 !
b1011101101101 &
b1011101101101 )
b1100000110011 (
1#
#360000
0#
b100001 "
b100001 %
#365000
b1100000110011 !
b1100000110011 &
b1100000110011 )
b100001 '
b1100011111000 (
1#
#370000
0#
b100010 "
b100010 %
#375000
b100010 '
b1100011111000 !
b1100011111000 &
b1100011111000 )
b1100110111101 (
1#
#380000
0#
b100011 "
b100011 %
#385000
b1100110111101 !
b1100110111101 &
b1100110111101 )
b100011 '
b1101010000010 (
1#
#390000
0#
b100100 "
b100100 %
#395000
b100100 '
b1101010000010 !
b1101010000010 &
b1101010000010 )
b1101101000111 (
1#
#400000
0#
b100101 "
b100101 %
#405000
b1101101000111 !
b1101101000111 &
b1101101000111 )
b100101 '
b1110000001011 (
1#
#410000
0#
b100110 "
b100110 %
#415000
b100110 '
b1110000001011 !
b1110000001011 &
b1110000001011 )
b1110011001111 (
1#
#420000
0#
b100111 "
b100111 %
#425000
b1110011001111 !
b1110011001111 &
b1110011001111 )
b100111 '
b1110110010011 (
1#
#430000
0#
b101000 "
b101000 %
#435000
b101000 '
b1110110010011 !
b1110110010011 &
b1110110010011 )
b1111001010110 (
1#
#440000
0#
b101001 "
b101001 %
#445000
b1111001010110 !
b1111001010110 &
b1111001010110 )
b101001 '
b1111100011001 (
1#
#450000
0#
b101010 "
b101010 %
#455000
b101010 '
b1111100011001 !
b1111100011001 &
b1111100011001 )
b1111111011100 (
1#
#460000
0#
b101011 "
b101011 %
#465000
b1111111011100 !
b1111111011100 &
b1111111011100 )
b101011 '
b10000010011111 (
1#
#470000
0#
b101100 "
b101100 %
#475000
b101100 '
b10000010011111 !
b10000010011111 &
b10000010011111 )
b10000101100001 (
1#
#480000
0#
b101101 "
b101101 %
#485000
b10000101100001 !
b10000101100001 &
b10000101100001 )
b101101 '
b10001000100011 (
1#
#490000
0#
b101110 "
b101110 %
#495000
b101110 '
b10001000100011 !
b10001000100011 &
b10001000100011 )
b10001011100101 (
1#
#500000
0#
b101111 "
b101111 %
#505000
b10001011100101 !
b10001011100101 &
b10001011100101 )
b101111 '
b10001110100110 (
1#
#510000
0#
b110000 "
b110000 %
#515000
b110000 '
b10001110100110 !
b10001110100110 &
b10001110100110 )
b10010001100111 (
1#
#520000
0#
b110001 "
b110001 %
#525000
b10010001100111 !
b10010001100111 &
b10010001100111 )
b110001 '
b10010100101000 (
1#
#530000
0#
b110010 "
b110010 %
#535000
b110010 '
b10010100101000 !
b10010100101000 &
b10010100101000 )
b10010111101000 (
1#
#540000
0#
b110011 "
b110011 %
#545000
b10010111101000 !
b10010111101000 &
b10010111101000 )
b110011 '
b10011010101000 (
1#
#550000
0#
b110100 "
b110100 %
#555000
b110100 '
b10011010101000 !
b10011010101000 &
b10011010101000 )
b10011101100111 (
1#
#560000
0#
b110101 "
b110101 %
#565000
b10011101100111 !
b10011101100111 &
b10011101100111 )
b110101 '
b10100000100110 (
1#
#570000
0#
b110110 "
b110110 %
#575000
b110110 '
b10100000100110 !
b10100000100110 &
b10100000100110 )
b10100011100101 (
1#
#580000
0#
b110111 "
b110111 %
#585000
b10100011100101 !
b10100011100101 &
b10100011100101 )
b110111 '
b10100110100011 (
1#
#590000
0#
b111000 "
b111000 %
#595000
b111000 '
b10100110100011 !
b10100110100011 &
b10100110100011 )
b10101001100001 (
1#
#600000
0#
b111001 "
b111001 %
#605000
b10101001100001 !
b10101001100001 &
b10101001100001 )
b111001 '
b10101100011111 (
1#
#610000
0#
b111010 "
b111010 %
#615000
b111010 '
b10101100011111 !
b10101100011111 &
b10101100011111 )
b10101111011100 (
1#
#620000
0#
b111011 "
b111011 %
#625000
b10101111011100 !
b10101111011100 &
b10101111011100 )
b111011 '
b10110010011000 (
1#
#630000
0#
b111100 "
b111100 %
#635000
b111100 '
b10110010011000 !
b10110010011000 &
b10110010011000 )
b10110101010101 (
1#
#640000
0#
b111101 "
b111101 %
#645000
b10110101010101 !
b10110101010101 &
b10110101010101 )
b111101 '
b10111000010001 (
1#
#650000
0#
b111110 "
b111110 %
#655000
b111110 '
b10111000010001 !
b10111000010001 &
b10111000010001 )
b10111011001100 (
1#
#660000
0#
b111111 "
b111111 %
#665000
b10111011001100 !
b10111011001100 &
b10111011001100 )
b111111 '
b10111110000111 (
1#
#670000
0#
b1000000 "
b1000000 %
#675000
b1000000 '
b10111110000111 !
b10111110000111 &
b10111110000111 )
b11000001000001 (
1#
#680000
0#
b1000001 "
b1000001 %
#685000
b11000001000001 !
b11000001000001 &
b11000001000001 )
b1000001 '
b11000011111011 (
1#
#690000
0#
b1000010 "
b1000010 %
#695000
b1000010 '
b11000011111011 !
b11000011111011 &
b11000011111011 )
b11000110110101 (
1#
#700000
0#
b1000011 "
b1000011 %
#705000
b11000110110101 !
b11000110110101 &
b11000110110101 )
b1000011 '
b11001001101110 (
1#
#710000
0#
b1000100 "
b1000100 %
#715000
b1000100 '
b11001001101110 !
b11001001101110 &
b11001001101110 )
b11001100100110 (
1#
#720000
0#
b1000101 "
b1000101 %
#725000
b11001100100110 !
b11001100100110 &
b11001100100110 )
b1000101 '
b11001111011110 (
1#
#730000
0#
b1000110 "
b1000110 %
#735000
b1000110 '
b11001111011110 !
b11001111011110 &
b11001111011110 )
b11010010010110 (
1#
#740000
0#
b1000111 "
b1000111 %
#745000
b11010010010110 !
b11010010010110 &
b11010010010110 )
b1000111 '
b11010101001101 (
1#
#750000
0#
b1001000 "
b1001000 %
#755000
b1001000 '
b11010101001101 !
b11010101001101 &
b11010101001101 )
b11011000000100 (
1#
#760000
0#
b1001001 "
b1001001 %
#765000
b11011000000100 !
b11011000000100 &
b11011000000100 )
b1001001 '
b11011010111010 (
1#
#770000
0#
b1001010 "
b1001010 %
#775000
b1001010 '
b11011010111010 !
b11011010111010 &
b11011010111010 )
b11011101101111 (
1#
#780000
0#
b1001011 "
b1001011 %
#785000
b11011101101111 !
b11011101101111 &
b11011101101111 )
b1001011 '
b11100000100100 (
1#
#790000
0#
b1001100 "
b1001100 %
#795000
b1001100 '
b11100000100100 !
b11100000100100 &
b11100000100100 )
b11100011011000 (
1#
#800000
0#
b1001101 "
b1001101 %
#805000
b11100011011000 !
b11100011011000 &
b11100011011000 )
b1001101 '
b11100110001100 (
1#
#810000
0#
b1001110 "
b1001110 %
#815000
b1001110 '
b11100110001100 !
b11100110001100 &
b11100110001100 )
b11101001000000 (
1#
#820000
0#
b1001111 "
b1001111 %
#825000
b11101001000000 !
b11101001000000 &
b11101001000000 )
b1001111 '
b11101011110010 (
1#
#830000
0#
b1010000 "
b1010000 %
#835000
b1010000 '
b11101011110010 !
b11101011110010 &
b11101011110010 )
b11101110100101 (
1#
#840000
0#
b1010001 "
b1010001 %
#845000
b11101110100101 !
b11101110100101 &
b11101110100101 )
b1010001 '
b11110001010110 (
1#
#850000
0#
b1010010 "
b1010010 %
#855000
b1010010 '
b11110001010110 !
b11110001010110 &
b11110001010110 )
b11110100000111 (
1#
#860000
0#
b1010011 "
b1010011 %
#865000
b11110100000111 !
b11110100000111 &
b11110100000111 )
b1010011 '
b11110110111000 (
1#
#870000
0#
b1010100 "
b1010100 %
#875000
b1010100 '
b11110110111000 !
b11110110111000 &
b11110110111000 )
b11111001101000 (
1#
#880000
0#
b1010101 "
b1010101 %
#885000
b11111001101000 !
b11111001101000 &
b11111001101000 )
b1010101 '
b11111100010111 (
1#
#890000
0#
b1010110 "
b1010110 %
#895000
b1010110 '
b11111100010111 !
b11111100010111 &
b11111100010111 )
b11111111000101 (
1#
#900000
0#
b1010111 "
b1010111 %
#905000
b11111111000101 !
b11111111000101 &
b11111111000101 )
b1010111 '
b100000001110011 (
1#
#910000
0#
b1011000 "
b1011000 %
#915000
b1011000 '
b100000001110011 !
b100000001110011 &
b100000001110011 )
b100000100100001 (
1#
#920000
0#
b1011001 "
b1011001 %
#925000
b100000100100001 !
b100000100100001 &
b100000100100001 )
b1011001 '
b100000111001110 (
1#
#930000
0#
b1011010 "
b1011010 %
#935000
b1011010 '
b100000111001110 !
b100000111001110 &
b100000111001110 )
b100001001111010 (
1#
#940000
0#
b1011011 "
b1011011 %
#945000
b100001001111010 !
b100001001111010 &
b100001001111010 )
b1011011 '
b100001100100101 (
1#
#950000
0#
b1011100 "
b1011100 %
#955000
b1011100 '
b100001100100101 !
b100001100100101 &
b100001100100101 )
b100001111010000 (
1#
#960000
0#
b1011101 "
b1011101 %
#965000
b100001111010000 !
b100001111010000 &
b100001111010000 )
b1011101 '
b100010001111010 (
1#
#970000
0#
b1011110 "
b1011110 %
#975000
b1011110 '
b100010001111010 !
b100010001111010 &
b100010001111010 )
b100010100100100 (
1#
#980000
0#
b1011111 "
b1011111 %
#985000
b100010100100100 !
b100010100100100 &
b100010100100100 )
b1011111 '
b100010111001101 (
1#
#990000
0#
b1100000 "
b1100000 %
#995000
b1100000 '
b100010111001101 !
b100010111001101 &
b100010111001101 )
b100011001110101 (
1#
#1000000
0#
b1100001 "
b1100001 %
#1005000
b100011001110101 !
b100011001110101 &
b100011001110101 )
b1100001 '
b100011100011100 (
1#
#1010000
0#
b1100010 "
b1100010 %
#1015000
b1100010 '
b100011100011100 !
b100011100011100 &
b100011100011100 )
b100011111000011 (
1#
#1020000
0#
b1100011 "
b1100011 %
#1025000
b100011111000011 !
b100011111000011 &
b100011111000011 )
b1100011 '
b100100001101001 (
1#
#1030000
0#
b1100100 "
b1100100 %
#1035000
b1100100 '
b100100001101001 !
b100100001101001 &
b100100001101001 )
b100100100001111 (
1#
#1040000
0#
b1100101 "
b1100101 %
#1045000
b100100100001111 !
b100100100001111 &
b100100100001111 )
b1100101 '
b100100110110100 (
1#
#1050000
0#
b1100110 "
b1100110 %
#1055000
b1100110 '
b100100110110100 !
b100100110110100 &
b100100110110100 )
b100101001011000 (
1#
#1060000
0#
b1100111 "
b1100111 %
#1065000
b100101001011000 !
b100101001011000 &
b100101001011000 )
b1100111 '
b100101011111011 (
1#
#1070000
0#
b1101000 "
b1101000 %
#1075000
b1101000 '
b100101011111011 !
b100101011111011 &
b100101011111011 )
b100101110011110 (
1#
#1080000
0#
b1101001 "
b1101001 %
#1085000
b100101110011110 !
b100101110011110 &
b100101110011110 )
b1101001 '
b100110000111111 (
1#
#1090000
0#
b1101010 "
b1101010 %
#1095000
b1101010 '
b100110000111111 !
b100110000111111 &
b100110000111111 )
b100110011100001 (
1#
#1100000
0#
b1101011 "
b1101011 %
#1105000
b100110011100001 !
b100110011100001 &
b100110011100001 )
b1101011 '
b100110110000001 (
1#
#1110000
0#
b1101100 "
b1101100 %
#1115000
b1101100 '
b100110110000001 !
b100110110000001 &
b100110110000001 )
b100111000100001 (
1#
#1120000
0#
b1101101 "
b1101101 %
#1125000
b100111000100001 !
b100111000100001 &
b100111000100001 )
b1101101 '
b100111010111111 (
1#
#1130000
0#
b1101110 "
b1101110 %
#1135000
b1101110 '
b100111010111111 !
b100111010111111 &
b100111010111111 )
b100111101011110 (
1#
#1140000
0#
b1101111 "
b1101111 %
#1145000
b100111101011110 !
b100111101011110 &
b100111101011110 )
b1101111 '
b100111111111011 (
1#
#1150000
0#
b1110000 "
b1110000 %
#1155000
b1110000 '
b100111111111011 !
b100111111111011 &
b100111111111011 )
b101000010010111 (
1#
#1160000
0#
b1110001 "
b1110001 %
#1165000
b101000010010111 !
b101000010010111 &
b101000010010111 )
b1110001 '
b101000100110011 (
1#
#1170000
0#
b1110010 "
b1110010 %
#1175000
b1110010 '
b101000100110011 !
b101000100110011 &
b101000100110011 )
b101000111001110 (
1#
#1180000
0#
b1110011 "
b1110011 %
#1185000
b101000111001110 !
b101000111001110 &
b101000111001110 )
b1110011 '
b101001001101001 (
1#
#1190000
0#
b1110100 "
b1110100 %
#1195000
b1110100 '
b101001001101001 !
b101001001101001 &
b101001001101001 )
b101001100000010 (
1#
#1200000
0#
b1110101 "
b1110101 %
#1205000
b101001100000010 !
b101001100000010 &
b101001100000010 )
b1110101 '
b101001110011011 (
1#
#1210000
0#
b1110110 "
b1110110 %
#1215000
b1110110 '
b101001110011011 !
b101001110011011 &
b101001110011011 )
b101010000110011 (
1#
#1220000
0#
b1110111 "
b1110111 %
#1225000
b101010000110011 !
b101010000110011 &
b101010000110011 )
b1110111 '
b101010011001010 (
1#
#1230000
0#
b1111000 "
b1111000 %
#1235000
b1111000 '
b101010011001010 !
b101010011001010 &
b101010011001010 )
b101010101100000 (
1#
#1240000
0#
b1111001 "
b1111001 %
#1245000
b101010101100000 !
b101010101100000 &
b101010101100000 )
b1111001 '
b101010111110101 (
1#
#1250000
0#
b1111010 "
b1111010 %
#1255000
b1111010 '
b101010111110101 !
b101010111110101 &
b101010111110101 )
b101011010001010 (
1#
#1260000
0#
b1111011 "
b1111011 %
#1265000
b101011010001010 !
b101011010001010 &
b101011010001010 )
b1111011 '
b101011100011101 (
1#
#1270000
0#
b1111100 "
b1111100 %
#1275000
b1111100 '
b101011100011101 !
b101011100011101 &
b101011100011101 )
b101011110110000 (
1#
#1280000
0#
b1111101 "
b1111101 %
#1285000
b101011110110000 !
b101011110110000 &
b101011110110000 )
b1111101 '
b101100001000010 (
1#
#1290000
0#
b1111110 "
b1111110 %
#1295000
b1111110 '
b101100001000010 !
b101100001000010 &
b101100001000010 )
b101100011010100 (
1#
#1300000
0#
b1111111 "
b1111111 %
#1305000
b101100011010100 !
b101100011010100 &
b101100011010100 )
b1111111 '
b101100101100100 (
1#
#1310000
0#
b10000000 "
b10000000 %
#1315000
b10000000 '
b101100101100100 !
b101100101100100 &
b101100101100100 )
b101100111110011 (
1#
#1320000
0#
b10000001 "
b10000001 %
#1325000
b101100111110011 !
b101100111110011 &
b101100111110011 )
b10000001 '
b101101010000010 (
1#
#1330000
0#
b10000010 "
b10000010 %
#1335000
b10000010 '
b101101010000010 !
b101101010000010 &
b101101010000010 )
b101101100010000 (
1#
#1340000
0#
b10000011 "
b10000011 %
#1345000
b101101100010000 !
b101101100010000 &
b101101100010000 )
b10000011 '
b101101110011101 (
1#
#1350000
0#
b10000100 "
b10000100 %
#1355000
b10000100 '
b101101110011101 !
b101101110011101 &
b101101110011101 )
b101110000101001 (
1#
#1360000
0#
b10000101 "
b10000101 %
#1365000
b101110000101001 !
b101110000101001 &
b101110000101001 )
b10000101 '
b101110010110100 (
1#
#1370000
0#
b10000110 "
b10000110 %
#1375000
b10000110 '
b101110010110100 !
b101110010110100 &
b101110010110100 )
b101110100111110 (
1#
#1380000
0#
b10000111 "
b10000111 %
#1385000
b101110100111110 !
b101110100111110 &
b101110100111110 )
b10000111 '
b101110111000111 (
1#
#1390000
0#
b10001000 "
b10001000 %
#1395000
b10001000 '
b101110111000111 !
b101110111000111 &
b101110111000111 )
b101111001010000 (
1#
#1400000
0#
b10001001 "
b10001001 %
#1405000
b101111001010000 !
b101111001010000 &
b101111001010000 )
b10001001 '
b101111011010111 (
1#
#1410000
0#
b10001010 "
b10001010 %
#1415000
b10001010 '
b101111011010111 !
b101111011010111 &
b101111011010111 )
b101111101011110 (
1#
#1420000
0#
b10001011 "
b10001011 %
#1425000
b101111101011110 !
b101111101011110 &
b101111101011110 )
b10001011 '
b101111111100011 (
1#
#1430000
0#
b10001100 "
b10001100 %
#1435000
b10001100 '
b101111111100011 !
b101111111100011 &
b101111111100011 )
b110000001101000 (
1#
#1440000
0#
b10001101 "
b10001101 %
#1445000
b110000001101000 !
b110000001101000 &
b110000001101000 )
b10001101 '
b110000011101100 (
1#
#1450000
0#
b10001110 "
b10001110 %
#1455000
b10001110 '
b110000011101100 !
b110000011101100 &
b110000011101100 )
b110000101101111 (
1#
#1460000
0#
b10001111 "
b10001111 %
#1465000
b110000101101111 !
b110000101101111 &
b110000101101111 )
b10001111 '
b110000111110001 (
1#
#1470000
0#
b10010000 "
b10010000 %
#1475000
b10010000 '
b110000111110001 !
b110000111110001 &
b110000111110001 )
b110001001110001 (
1#
#1480000
0#
b10010001 "
b10010001 %
#1485000
b110001001110001 !
b110001001110001 &
b110001001110001 )
b10010001 '
b110001011110010 (
1#
#1490000
0#
b10010010 "
b10010010 %
#1495000
b10010010 '
b110001011110010 !
b110001011110010 &
b110001011110010 )
b110001101110001 (
1#
#1500000
0#
b10010011 "
b10010011 %
#1505000
b110001101110001 !
b110001101110001 &
b110001101110001 )
b10010011 '
b110001111101111 (
1#
#1510000
0#
b10010100 "
b10010100 %
#1515000
b10010100 '
b110001111101111 !
b110001111101111 &
b110001111101111 )
b110010001101100 (
1#
#1520000
0#
b10010101 "
b10010101 %
#1525000
b110010001101100 !
b110010001101100 &
b110010001101100 )
b10010101 '
b110010011101000 (
1#
#1530000
0#
b10010110 "
b10010110 %
#1535000
b10010110 '
b110010011101000 !
b110010011101000 &
b110010011101000 )
b110010101100011 (
1#
#1540000
0#
b10010111 "
b10010111 %
#1545000
b110010101100011 !
b110010101100011 &
b110010101100011 )
b10010111 '
b110010111011101 (
1#
#1550000
0#
b10011000 "
b10011000 %
#1555000
b10011000 '
b110010111011101 !
b110010111011101 &
b110010111011101 )
b110011001010111 (
1#
#1560000
0#
b10011001 "
b10011001 %
#1565000
b110011001010111 !
b110011001010111 &
b110011001010111 )
b10011001 '
b110011011001111 (
1#
#1570000
0#
b10011010 "
b10011010 %
#1575000
b10011010 '
b110011011001111 !
b110011011001111 &
b110011011001111 )
b110011101000110 (
1#
#1580000
0#
b10011011 "
b10011011 %
#1585000
b110011101000110 !
b110011101000110 &
b110011101000110 )
b10011011 '
b110011110111101 (
1#
#1590000
0#
b10011100 "
b10011100 %
#1595000
b10011100 '
b110011110111101 !
b110011110111101 &
b110011110111101 )
b110100000110010 (
1#
#1600000
0#
b10011101 "
b10011101 %
#1605000
b110100000110010 !
b110100000110010 &
b110100000110010 )
b10011101 '
b110100010100110 (
1#
#1610000
0#
b10011110 "
b10011110 %
#1615000
b10011110 '
b110100010100110 !
b110100010100110 &
b110100010100110 )
b110100100011001 (
1#
#1620000
0#
b10011111 "
b10011111 %
#1625000
b110100100011001 !
b110100100011001 &
b110100100011001 )
b10011111 '
b110100110001100 (
1#
#1630000
0#
b10100000 "
b10100000 %
#1635000
b10100000 '
b110100110001100 !
b110100110001100 &
b110100110001100 )
b110100111111101 (
1#
#1640000
0#
b10100001 "
b10100001 %
#1645000
b110100111111101 !
b110100111111101 &
b110100111111101 )
b10100001 '
b110101001101101 (
1#
#1650000
0#
b10100010 "
b10100010 %
#1655000
b10100010 '
b110101001101101 !
b110101001101101 &
b110101001101101 )
b110101011011100 (
1#
#1660000
0#
b10100011 "
b10100011 %
#1665000
b110101011011100 !
b110101011011100 &
b110101011011100 )
b10100011 '
b110101101001010 (
1#
#1670000
0#
b10100100 "
b10100100 %
#1675000
b10100100 '
b110101101001010 !
b110101101001010 &
b110101101001010 )
b110101110111000 (
1#
#1680000
0#
b10100101 "
b10100101 %
#1685000
b110101110111000 !
b110101110111000 &
b110101110111000 )
b10100101 '
b110110000100100 (
1#
#1690000
0#
b10100110 "
b10100110 %
#1695000
b10100110 '
b110110000100100 !
b110110000100100 &
b110110000100100 )
b110110010001111 (
1#
#1700000
0#
b10100111 "
b10100111 %
#1705000
b110110010001111 !
b110110010001111 &
b110110010001111 )
b10100111 '
b110110011111001 (
1#
#1710000
0#
b10101000 "
b10101000 %
#1715000
b10101000 '
b110110011111001 !
b110110011111001 &
b110110011111001 )
b110110101100010 (
1#
#1720000
0#
b10101001 "
b10101001 %
#1725000
b110110101100010 !
b110110101100010 &
b110110101100010 )
b10101001 '
b110110111001010 (
1#
#1730000
0#
b10101010 "
b10101010 %
#1735000
b10101010 '
b110110111001010 !
b110110111001010 &
b110110111001010 )
b110111000110000 (
1#
#1740000
0#
b10101011 "
b10101011 %
#1745000
b110111000110000 !
b110111000110000 &
b110111000110000 )
b10101011 '
b110111010010110 (
1#
#1750000
0#
b10101100 "
b10101100 %
#1755000
b10101100 '
b110111010010110 !
b110111010010110 &
b110111010010110 )
b110111011111011 (
1#
#1760000
0#
b10101101 "
b10101101 %
#1765000
b110111011111011 !
b110111011111011 &
b110111011111011 )
b10101101 '
b110111101011111 (
1#
#1770000
0#
b10101110 "
b10101110 %
#1775000
b10101110 '
b110111101011111 !
b110111101011111 &
b110111101011111 )
b110111111000001 (
1#
#1780000
0#
b10101111 "
b10101111 %
#1785000
b110111111000001 !
b110111111000001 &
b110111111000001 )
b10101111 '
b111000000100011 (
1#
#1790000
0#
b10110000 "
b10110000 %
#1795000
b10110000 '
b111000000100011 !
b111000000100011 &
b111000000100011 )
b111000010000011 (
1#
#1800000
0#
b10110001 "
b10110001 %
#1805000
b111000010000011 !
b111000010000011 &
b111000010000011 )
b10110001 '
b111000011100010 (
1#
#1810000
0#
b10110010 "
b10110010 %
#1815000
b10110010 '
b111000011100010 !
b111000011100010 &
b111000011100010 )
b111000101000001 (
1#
#1820000
0#
b10110011 "
b10110011 %
#1825000
b111000101000001 !
b111000101000001 &
b111000101000001 )
b10110011 '
b111000110011110 (
1#
#1830000
0#
b10110100 "
b10110100 %
#1835000
b10110100 '
b111000110011110 !
b111000110011110 &
b111000110011110 )
b111000111111010 (
1#
#1840000
0#
b10110101 "
b10110101 %
#1845000
b111000111111010 !
b111000111111010 &
b111000111111010 )
b10110101 '
b111001001010101 (
1#
#1850000
0#
b10110110 "
b10110110 %
#1855000
b10110110 '
b111001001010101 !
b111001001010101 &
b111001001010101 )
b111001010101111 (
1#
#1860000
0#
b10110111 "
b10110111 %
#1865000
b111001010101111 !
b111001010101111 &
b111001010101111 )
b10110111 '
b111001100000111 (
1#
#1870000
0#
b10111000 "
b10111000 %
#1875000
b10111000 '
b111001100000111 !
b111001100000111 &
b111001100000111 )
b111001101011111 (
1#
#1880000
0#
b10111001 "
b10111001 %
#1885000
b111001101011111 !
b111001101011111 &
b111001101011111 )
b10111001 '
b111001110110101 (
1#
#1890000
0#
b10111010 "
b10111010 %
#1895000
b10111010 '
b111001110110101 !
b111001110110101 &
b111001110110101 )
b111010000001011 (
1#
#1900000
0#
b10111011 "
b10111011 %
#1905000
b111010000001011 !
b111010000001011 &
b111010000001011 )
b10111011 '
b111010001011111 (
1#
#1910000
0#
b10111100 "
b10111100 %
#1915000
b10111100 '
b111010001011111 !
b111010001011111 &
b111010001011111 )
b111010010110010 (
1#
#1920000
0#
b10111101 "
b10111101 %
#1925000
b111010010110010 !
b111010010110010 &
b111010010110010 )
b10111101 '
b111010100000100 (
1#
#1930000
0#
b10111110 "
b10111110 %
#1935000
b10111110 '
b111010100000100 !
b111010100000100 &
b111010100000100 )
b111010101010101 (
1#
#1940000
0#
b10111111 "
b10111111 %
#1945000
b111010101010101 !
b111010101010101 &
b111010101010101 )
b10111111 '
b111010110100101 (
1#
#1950000
0#
b11000000 "
b11000000 %
#1955000
b11000000 '
b111010110100101 !
b111010110100101 &
b111010110100101 )
b111010111110100 (
1#
#1960000
0#
b11000001 "
b11000001 %
#1965000
b111010111110100 !
b111010111110100 &
b111010111110100 )
b11000001 '
b111011001000001 (
1#
#1970000
0#
b11000010 "
b11000010 %
#1975000
b11000010 '
b111011001000001 !
b111011001000001 &
b111011001000001 )
b111011010001110 (
1#
#1980000
0#
b11000011 "
b11000011 %
#1985000
b111011010001110 !
b111011010001110 &
b111011010001110 )
b11000011 '
b111011011011001 (
1#
#1990000
0#
b11000100 "
b11000100 %
#1995000
b11000100 '
b111011011011001 !
b111011011011001 &
b111011011011001 )
b111011100100011 (
1#
#2000000
0#
b11000101 "
b11000101 %
#2005000
b111011100100011 !
b111011100100011 &
b111011100100011 )
b11000101 '
b111011101101100 (
1#
#2010000
0#
b11000110 "
b11000110 %
#2015000
b11000110 '
b111011101101100 !
b111011101101100 &
b111011101101100 )
b111011110110100 (
1#
#2020000
0#
b11000111 "
b11000111 %
#2025000
b111011110110100 !
b111011110110100 &
b111011110110100 )
b11000111 '
b111011111111010 (
1#
#2030000
0#
b11001000 "
b11001000 %
#2035000
b11001000 '
b111011111111010 !
b111011111111010 &
b111011111111010 )
b111100001000000 (
1#
#2040000
0#
b11001001 "
b11001001 %
#2045000
b111100001000000 !
b111100001000000 &
b111100001000000 )
b11001001 '
b111100010000100 (
1#
#2050000
0#
b11001010 "
b11001010 %
#2055000
b11001010 '
b111100010000100 !
b111100010000100 &
b111100010000100 )
b111100011000111 (
1#
#2060000
0#
b11001011 "
b11001011 %
#2065000
b111100011000111 !
b111100011000111 &
b111100011000111 )
b11001011 '
b111100100001001 (
1#
#2070000
0#
b11001100 "
b11001100 %
#2075000
b11001100 '
b111100100001001 !
b111100100001001 &
b111100100001001 )
b111100101001010 (
1#
#2080000
0#
b11001101 "
b11001101 %
#2085000
b111100101001010 !
b111100101001010 &
b111100101001010 )
b11001101 '
b111100110001010 (
1#
#2090000
0#
b11001110 "
b11001110 %
#2095000
b11001110 '
b111100110001010 !
b111100110001010 &
b111100110001010 )
b111100111001000 (
1#
#2100000
0#
b11001111 "
b11001111 %
